<?xml version="1.0" encoding="UTF-8"?>
<svg width="1399px" height="256px" viewBox="0 0 1399 256" version="1.1" xmlns="http://www.w3.org/2000/svg" xmlns:xlink="http://www.w3.org/1999/xlink">
    <title>MHS Pillar Logo – MHS Insights [WEB-1]</title>
    <g id="MHS-Pillar-Logo-–-MHS-Insights-[WEB-1]" stroke="none" stroke-width="1" fill="none" fill-rule="evenodd">
        <path d="M128.084509,23.1103188 L128.084509,65.0786894 C105.681374,64.5474442 83.2782394,75.7035933 71.543264,96.422156 C53.9408009,126.703132 63.5421444,165.484032 93.9463989,183.546368 C124.350653,201.07746 163.289436,191.515046 181.425307,161.23407 L203.295034,126.171887 L184.625754,115.546983 L252.368567,84.7347616 L257.702647,158.577844 L239.566776,147.95294 L217.697049,183.015123 C187.826202,233.483417 122.75043,249.952018 72.076672,220.202287 C21.9363224,189.921311 4.86726728,125.109397 34.7381138,74.6411029 C55.0076168,40.6414103 91.2793591,22.5790736 128.084509,23.1103188 Z M284.373046,34.7977131 C335.046803,64.5474442 351.58245,129.359358 321.711604,179.827652 C301.975509,213.296099 265.703767,231.889681 228.898616,231.358436 L228.898616,188.85882 C251.301751,189.390065 273.171478,178.233916 284.906454,157.515354 C302.508917,127.234377 292.907573,88.453478 262.503319,70.3911413 C232.099064,52.8600498 193.160282,62.4224634 175.024411,92.7034396 L153.154684,127.765623 L171.823963,138.390527 L104.08115,169.202748 L99.2804787,95.3596656 L116.882942,107.04706 L138.752669,71.9848769 C168.623515,21.5165832 233.699288,5.0479821 284.373046,34.7977131 Z" id="Combined-Shape" fill="#D7282F" fill-rule="nonzero"></path>
        <path d="M537.741833,107.04706 C529.740714,117.140719 521.739594,126.703132 514.271882,136.265546 C502.003499,151.671656 489.201708,167.609012 476.933324,183.015123 C475.3331,185.140104 474.266284,185.140104 472.66606,183.015123 C452.929965,158.046599 432.660462,133.078075 412.924367,108.640796 C412.924367,108.640796 412.390959,108.10955 411.857551,107.578305 L411.857551,110.234531 C411.857551,145.296714 411.857551,180.358897 411.857551,215.42108 C411.857551,218.608551 411.857551,218.608551 408.657104,218.608551 C400.655984,218.608551 392.121456,218.608551 384.120337,218.608551 C381.986705,218.608551 381.453297,218.077306 381.453297,215.952325 C381.453297,160.17158 381.453297,104.922079 381.453297,49.1413335 C381.453297,45.4226171 382.520113,42.2351459 386.253969,40.1101651 C389.454416,38.5164295 393.188272,37.9851843 396.922128,40.1101651 C397.988944,41.1726555 399.05576,42.2351459 400.122576,43.2976363 C424.659343,74.1098577 449.729518,104.922079 474.266284,135.734301 C474.799692,136.265546 474.799692,136.265546 475.3331,137.328036 C478.533548,133.60932 481.200588,129.890603 483.867628,126.703132 C506.270763,99.078382 528.14049,71.4536317 550.543625,43.8288815 C554.27748,39.0476747 559.078152,37.9851843 563.878824,41.1726555 C567.079272,42.7663911 568.146088,45.4226171 568.679496,48.6100883 C568.679496,49.1413335 568.679496,50.2038238 568.679496,50.735069 L568.679496,215.42108 C568.679496,219.139796 568.679496,219.139796 564.94564,219.139796 C559.61156,219.139796 554.27748,219.139796 548.943401,219.139796 C542.009097,219.139796 537.741833,214.889835 537.741833,207.983647 C537.741833,175.57769 537.741833,142.640488 537.741833,110.234531 L537.741833,107.04706 L537.741833,107.04706 Z" id="Path" fill="#FFFFFF" fill-rule="nonzero"></path>
        <path d="M641.22298,109.703286 L710.566017,109.703286 L710.566017,107.578305 L710.566017,44.3601267 C710.566017,41.1726555 710.566017,41.1726555 713.766465,41.1726555 C721.767584,41.1726555 730.302112,41.1726555 738.303231,41.1726555 C740.970271,41.1726555 740.970271,41.1726555 740.970271,43.8288815 C740.970271,100.672118 740.970271,158.046599 740.970271,214.889835 C740.970271,217.546061 740.970271,218.077306 737.769823,218.077306 C731.902336,218.077306 726.568256,218.077306 720.700768,218.077306 C714.299873,218.077306 710.032609,213.827345 710.032609,207.452402 C710.032609,186.202594 710.032609,164.421541 710.032609,143.171733 L710.032609,140.515507 L640.689572,140.515507 L640.689572,142.640488 L640.689572,214.889835 C640.689572,218.077306 640.689572,218.077306 637.489124,218.077306 C628.954597,218.077306 620.953477,218.077306 612.41895,218.077306 C609.75191,218.077306 609.75191,217.546061 609.75191,215.42108 L609.75191,43.2976363 C609.75191,40.6414103 609.75191,40.6414103 612.41895,40.6414103 C620.953477,40.6414103 629.488005,40.6414103 638.022532,40.6414103 C640.156164,40.6414103 640.689572,40.6414103 640.689572,43.2976363 C640.689572,64.5474442 640.689572,85.797252 640.689572,107.04706 L640.689572,109.703286 L641.22298,109.703286 Z" id="Path" fill="#FFFFFF" fill-rule="nonzero"></path>
        <path d="M886.05724,61.8912182 C886.05724,66.6724249 886.05724,70.9223865 886.05724,75.7035933 C886.05724,78.3598193 884.990424,78.8910645 882.323384,77.8285741 C874.855673,74.1098577 866.854553,70.9223865 858.320026,69.3286509 C844.984826,66.6724249 831.649627,66.1411798 818.314428,69.3286509 C812.44694,70.9223865 807.11286,74.1098577 804.979228,79.9535549 C802.845596,85.797252 804.44582,92.1721944 809.7799,95.8909108 C814.580572,99.078382 819.381243,101.203363 824.715323,103.328344 C838.583931,109.703286 852.985946,116.078228 866.854553,122.984416 C886.05724,133.60932 896.191992,150.077921 894.591768,171.858974 C893.524952,194.171272 878.056121,211.171119 857.786618,217.546061 C845.518234,221.264777 832.716443,221.796022 819.914651,220.733532 C808.179676,220.202287 796.444701,217.546061 785.776541,213.296099 C779.909053,211.171119 777.775422,207.452402 777.775422,201.608705 C777.775422,194.171272 777.775422,186.202594 777.775422,178.765162 C777.775422,177.702671 778.308829,176.640181 778.842237,176.640181 C779.375645,176.108936 780.442461,176.640181 781.509277,177.171426 C792.710845,184.077613 804.44582,188.85882 817.247612,190.452556 C827.382363,191.515046 838.050523,192.046291 848.185274,189.390065 C857.786618,186.733839 863.654105,180.358897 864.187513,171.327729 C865.254329,162.29656 860.453657,153.796637 851.91913,150.077921 C841.784378,145.296714 831.116219,140.515507 820.981467,135.734301 C812.44694,132.015584 803.912412,128.296868 795.911293,123.515661 C765.507038,105.453324 766.573854,63.4849538 796.978109,45.9538623 C805.512636,40.6414103 815.647388,38.5164295 825.248731,37.4539391 C841.25097,35.8602035 857.25321,36.9226939 872.722041,41.1726555 C876.455897,42.2351459 880.189752,43.8288815 884.457016,44.8913719 C886.05724,45.4226171 886.05724,45.9538623 886.05724,47.5475979 C886.05724,52.8600498 886.05724,57.6412566 886.05724,61.8912182" id="Path" fill="#FFFFFF" fill-rule="nonzero"></path>
        <rect id="Rectangle" fill="#FFFFFF" fill-rule="nonzero" x="955" y="31" width="6" height="194.745968"></rect>
        <path d="M1029.6,155.16 L1029.6,101.8 L1020,101.8 L1020,155.16 L1029.6,155.16 Z M1055.12,155.16 L1055.12,115.32 C1055.76,116.6 1056.4,117.8 1056.56,118.2 C1057.28,119.64 1057.76,120.68 1058,121.08 L1078.8,155.16 L1087.6,155.16 L1087.6,101.8 L1080,101.8 L1080,139.64 C1079.36,138.44 1078.88,137.48 1078.24,136.2 L1078.1414,136.014177 L1078.1414,136.014177 L1077.94302,135.642622 C1077.31521,134.471074 1076.70909,133.378182 1076.64,133.24 L1058,101.8 L1047.36,101.8 L1047.36,155.16 L1055.12,155.16 Z M1121.52,155.96 C1134.4,155.96 1142.8,149.4 1142.8,139.24 C1142.8,135.96 1141.92,133.08 1140.24,130.6 C1138.16,127.48 1134.72,125.56 1128.96,124.04 L1119.84,121.8 C1114.8,120.52 1112.4,118.44 1112.4,115.32 C1112.4,111.32 1116,108.76 1121.52,108.76 C1126.88,108.76 1130.08,110.68 1131.52,114.76 L1140.64,112.52 C1139.68,109.24 1138.48,107.56 1136.16,105.64 C1132.32,102.6 1127.2,101 1121.44,101 C1110.08,101 1102.56,107.4 1102.56,116.92 C1102.56,120.36 1103.6,123.48 1105.68,126.12 C1107.6,128.68 1110.32,130.12 1115.76,131.56 L1126,134.2 C1130.48,135.4 1132.64,137.48 1132.64,140.68 C1132.64,145.32 1128.56,148.2 1122.08,148.2 C1117.92,148.2 1114.32,147.24 1112.08,145.4 C1110.56,144.2 1109.84,143 1109.04,140.28 L1099.76,142.28 C1101.12,146.6 1102.48,148.76 1105.12,150.92 C1109.36,154.28 1114.88,155.96 1121.52,155.96 Z M1166.64,155.16 L1166.64,101.8 L1157.04,101.8 L1157.04,155.16 L1166.64,155.16 Z M1203.28,155.96 C1209.84,155.96 1214.24,153.48 1217.68,147.96 L1220.64,155.16 L1224.88,155.16 L1224.88,127.88 L1204.8,127.88 L1204.8,135.64 L1215.84,135.64 C1215.84,138.36 1215.68,139.32 1214.8,141.24 C1212.88,145.56 1209.12,148.04 1204.4,148.04 C1196.08,148.04 1191.76,141.24 1191.76,127.88 C1191.76,121.24 1192.88,116.84 1195.52,113.4 C1197.68,110.6 1200.88,109 1204.64,109 C1208.16,109 1211.36,110.52 1213.44,113.08 C1214.56,114.52 1215.12,115.88 1215.84,118.76 L1224.24,117.32 C1223.2,112.92 1222.16,110.6 1219.68,107.8 C1215.76,103.16 1210.88,101 1204.4,101 C1197.2,101 1191.44,103.72 1187.44,109.16 C1183.68,114.2 1181.6,121 1181.6,128.36 C1181.6,135.64 1183.52,142.6 1187.04,147.8 C1190.72,153.24 1196.16,155.96 1203.28,155.96 Z M1251.12,155.16 L1251.12,131.96 L1271.52,131.96 L1271.52,155.16 L1281.12,155.16 L1281.12,101.8 L1271.52,101.8 L1271.52,123.72 L1251.12,123.72 L1251.12,101.8 L1241.52,101.8 L1241.52,155.16 L1251.12,155.16 Z M1317.52,155.16 L1317.52,110.04 L1331.68,110.04 L1331.68,101.8 L1293.04,101.8 L1293.04,110.04 L1307.2,110.04 L1307.2,155.16 L1317.52,155.16 Z M1360.4,155.96 C1373.28,155.96 1381.68,149.4 1381.68,139.24 C1381.68,135.96 1380.8,133.08 1379.12,130.6 C1377.04,127.48 1373.6,125.56 1367.84,124.04 L1358.72,121.8 C1353.68,120.52 1351.28,118.44 1351.28,115.32 C1351.28,111.32 1354.88,108.76 1360.4,108.76 C1365.76,108.76 1368.96,110.68 1370.4,114.76 L1379.52,112.52 C1378.56,109.24 1377.36,107.56 1375.04,105.64 C1371.2,102.6 1366.08,101 1360.32,101 C1348.96,101 1341.44,107.4 1341.44,116.92 C1341.44,120.36 1342.48,123.48 1344.56,126.12 C1346.48,128.68 1349.2,130.12 1354.64,131.56 L1364.88,134.2 C1369.36,135.4 1371.52,137.48 1371.52,140.68 C1371.52,145.32 1367.44,148.2 1360.96,148.2 C1356.8,148.2 1353.2,147.24 1350.96,145.4 C1349.44,144.2 1348.72,143 1347.92,140.28 L1338.64,142.28 C1340,146.6 1341.36,148.76 1344,150.92 C1348.24,154.28 1353.76,155.96 1360.4,155.96 Z" id="INSIGHTS" fill="#D7282F" fill-rule="nonzero"></path>
    </g>
</svg>