<?xml version="1.0" encoding="UTF-8"?>
<svg width="215px" height="213px" viewBox="0 0 215 213" version="1.1" xmlns="http://www.w3.org/2000/svg" xmlns:xlink="http://www.w3.org/1999/xlink">
    <!-- Generator: Sketch 52.5 (67469) - http://www.bohemiancoding.com/sketch -->
    <!-- <title>Map-Southeast-Region+Dots+Text</title> -->
    <desc>Created with Sketch.</desc>
    <defs>
        <rect id="path-1" x="4" y="4" width="8" height="8" rx="4"></rect>
        <rect id="path-3" x="4" y="4" width="8" height="8" rx="4"></rect>
        <rect id="path-5" x="4" y="4" width="8" height="8" rx="4"></rect>
    </defs>
    <g id="Page-1" stroke="none" stroke-width="1" fill="none" fill-rule="evenodd">
        <g id="Map-Southeast-Region+Dots+Text" transform="translate(1.000000, 1.000000)">
            <g id="Group-6" fill="#A6E4F5" stroke="#FFFFFF">
                <path d="M72.349541,140.669613 L71.3789399,140.939006 L69.9405792,140.91558 L69.6482295,140.821878 L70.221235,140.634475 L71.9285574,140.388508 L72.349541,140.669613 Z M99.2924918,78.7679558 L99.5848415,80.478011 L99.8771913,82.1880663 L100.169541,83.8981215 L100.461891,85.5964641 L100.75424,87.2959779 L101.04659,88.9931492 L101.33894,90.6914917 L101.63129,92.3898343 L101.923639,94.0776354 L102.215989,95.7630939 L102.508339,97.450895 L102.800689,99.1363536 L103.093038,100.812442 L103.385388,102.486188 L103.677738,104.161105 L103.970087,105.837193 L104.240219,106.597348 L104.461235,107.827182 L106.016536,111.446409 L106.472601,112.970232 L106.343967,113.602718 L106.542765,114.141503 L107.057301,114.585414 L106.964918,115.100773 L106.262109,115.686409 L105.806044,116.390343 L105.478612,117.642431 L104.824918,119.845591 L104.812055,121.179669 L105.44353,123.006851 L105.572164,123.815028 L105.15118,127.375691 L105.431836,129.66084 L106.098393,131.147182 L102.543421,131.158895 L98.9884481,131.158895 L95.4334754,131.158895 L91.8785027,131.158895 L88.3235301,131.158895 L84.7685574,131.158895 L81.2135847,131.158895 L77.658612,131.158895 L77.5065902,132.072486 L77.5767541,132.950939 L77.9626557,133.782541 L79.5530383,135.364928 L79.7050601,135.751448 L79.4244044,136.969569 L79.4711803,137.835138 L79.2957705,138.280221 L78.9098689,138.679624 L78.8057923,139.111823 L78.5473552,139.230122 L77.3440437,140.541945 L73.1213443,140.975315 L73.355224,140.682497 L74.2439672,140.622762 L75.495224,140.202276 L75.2379563,139.498343 L74.7596721,138.726475 L74.3153005,138.644486 L74.0229508,138.186519 L74.0334754,136.757569 L73.7528197,135.925967 L73.0628743,135.07211 L72.8289945,135.234917 L72.326153,136.699006 L71.9051694,138.61989 L71.6946776,139.240663 L70.4434208,139.287514 L69.3324918,139.158674 L68.7828743,139.193812 L68.6425464,136.571337 L68.5256066,134.181945 L68.4086667,131.779669 L68.2917268,129.378564 L68.1759563,126.966917 L68.057847,124.552928 L67.9409071,122.129569 L67.8251366,119.705039 L68.092929,117.315646 L68.3630601,114.926254 L68.6308525,112.525149 L68.9009836,110.124044 L69.168776,107.710055 L69.4389071,105.298409 L69.7066995,102.872707 L69.9768306,100.448177 L70.244623,98.0248177 L70.5147541,95.5885746 L70.7825464,93.1523315 L71.0526776,90.7043757 L71.3204699,88.2564199 L71.5906011,85.7955801 L71.8583934,83.3370829 L72.1285246,80.8645304 L72.1975191,80.2320442 L72.2092131,80.0223867 L72.2442951,79.7049724 L71.273694,78.8265193 L71.0865902,78.652 L70.9462623,78.4868508 L71.0865902,78.4751381 L72.8535519,78.4997348 L74.6181749,78.521989 L76.3839672,78.5465856 L78.1497596,78.5688398 L79.9155519,78.5934365 L81.6813443,78.6168619 L83.4471366,78.6402873 L85.212929,78.6637127 L86.9798907,78.6871381 L88.7456831,78.7105635 L90.510306,78.733989 L92.2760984,78.7574144 L94.0418907,78.7808398 L95.8088525,78.8042652 L97.5734754,78.8276906 L99.2924918,78.7679558 Z" id="Fill-1"></path>
                <polygon id="Fill-3" points="54.0846995 65.3674475 54.0379235 65.6134144 54.2601093 66.1521989 54.2601093 66.4579006 54.0963934 66.6441326 53.7221858 66.7612597 53.4415301 66.8912707 53.3830601 67.1243536 53.3713661 67.229768 53.3947541 67.4886188 53.4415301 67.709989 53.2661202 68.0156906 51.9914754 68.7641326 51.4535519 69.7257459 51.6406557 70.907558 51.1962842 72.1022541 50.1087432 73.308663 49.6526776 74.6439116 49.8163934 76.1314254 49.266776 77.3390055 48.0155191 78.2514254 47.6062295 78.8136354 47.6062295 78.8499448 47.6062295 79.2704309 47.7348634 79.5983867 47.3138798 80.2203315 46.2614208 80.8528177 45.6884153 81.4735912 45.6065574 82.0826519 45.3609836 82.3754696 44.904918 82.5043094 44.6359563 83.3944751 44.4020765 85.5015912 43.840765 86.6974586 42.9286339 86.9902762 42.4491803 87.4576133 42.3790164 88.1018122 41.8410929 88.840884 40.8237158 89.6841989 40.4845902 90.4794917 40.8354098 91.241989 40.7652459 91.5465193 40.4495082 91.7924862 39.3502732 92.1555801 39.1631694 92.3312707 39.0579235 92.5292155 39.2801093 92.9169061 39.4087432 93.4908287 39.2450273 94.4629834 38.9760656 94.8717569 38.7187978 95.2594475 37.8066667 95.949326 37.5493989 96.4775691 37.9586885 96.840663 37.9236066 97.2506077 37.467541 97.6839779 37.5950055 98.1641989 37.7014208 98.4909834 38.132929 98.7838011 38.2732568 99.5931492 37.9703825 100.634409 38.0288525 101.490608 38.543388 102.192199 38.6486339 102.496729 38.1457923 104.817017 38.1808743 105.144972 36.0174863 105.144972 34.0412022 105.156685 32.064918 105.156685 30.0874645 105.156685 28.1006557 105.156685 26.1243716 105.167227 24.1480874 105.167227 22.1718033 105.167227 20.1955191 105.167227 18.219235 105.178939 16.2429508 105.178939 14.2538033 105.178939 12.2786885 105.178939 10.3024044 105.191823 8.32612022 105.191823 6.34983607 105.191823 6.33814208 103.41032 6.3135847 101.63116 6.30306011 99.8496575 6.27967213 98.0704972 5.71836066 97.7647956 4.70098361 97.6125304 4.1747541 97.719116 3.55497268 97.6371271 3.14451366 97.9299448 2.86502732 97.9885083 2.64284153 97.918232 2.51303825 97.6593812 2.04644809 97.4719779 1.47344262 96.827779 1.50852459 95.4 1.53191257 93.959337 1.56699454 92.5292155 1.6020765 91.0897238 1.62546448 89.6478895 1.66054645 88.2083978 1.69562842 86.7560221 1.71901639 85.3153591 1.75409836 83.8629834 1.78918033 82.4106077 1.81256831 80.958232 1.84765027 79.5058564 1.88273224 78.0534807 1.90612022 76.5893923 1.94120219 75.1253039 1.96575956 73.6729282 1.72018579 71.786011 1.47344262 69.9131492 1.22786885 68.0274033 0.982295082 66.1416575 0.736721311 64.2559116 0.491147541 62.358453 0.24557377 60.4727072 5.68434189e-14 58.5635359 3.06382514 58.5635359 6.12765027 58.5635359 9.19147541 58.5635359 12.2553005 58.5635359 15.3308197 58.5635359 18.3946448 58.5635359 21.4584699 58.5635359 24.5222951 58.5635359 27.5861202 58.5635359 30.6499454 58.5635359 33.7254645 58.5635359 36.7892896 58.5635359 39.8531148 58.5635359 42.9169399 58.5635359 45.980765 58.5635359 49.0562842 58.5635359 49.5357377 59.641105 50.0151913 60.3321547 50.0970492 60.8358011 50.0034973 61.3511602 49.196612 62.4521547 48.4587213 62.9675138 48.0506011 63.518011 47.5009836 64.0333702 46.6356284 65.4857459 48.4481967 65.4506077 50.260765 65.4271823 52.0733333 65.3920442"></polygon>
                <path d="M102.215989,131.194033 L98.6633552,131.194033 L95.1072131,131.194033 L91.5522404,131.194033 L87.9972678,131.194033 L84.4422951,131.194033 L80.8884918,131.194033 L77.3323497,131.194033 L77.1803279,132.107624 L77.2504918,132.986077 L77.635224,133.81768 L79.226776,135.397724 L79.3787978,135.785414 L79.0981421,137.003536 L79.144918,137.870276 L78.9706776,138.315359 L78.5836066,138.713591 L78.4783607,139.146961 L78.9344262,138.937304 L78.9823716,139.322652 L78.3497268,140.013702 L78.6292131,140.202276 L80.7703825,139.627182 L81.0978142,138.900994 L81.8345355,138.174807 L81.985388,137.085525 L82.5595628,137.085525 L83.0740984,137.577459 L83.495082,136.898122 L83.8926776,136.687293 L84.2551913,137.554033 L84.0330055,138.455912 L82.5127869,138.889282 L82.0672459,139.170387 L81.6591257,139.61547 L84.2329727,139.193812 L87.4020437,138.807293 L88.2077596,138.526188 L89.1198907,137.987403 L89.9501639,137.624309 L90.7582186,137.8 L92.0445574,137.660619 L93.049071,138.022541 L93.3531148,138.315359 L93.5051366,138.770983 L92.2304918,138.479337 L89.8671366,138.864685 L92.9438251,139.709171 L96.4648852,141.207227 L97.1770492,141.747182 L97.5629508,141.805746 L97.7032787,141.372376 L97.7266667,140.82305 L98.44,140.376796 L99.2351913,140.283094 L98.8259016,140.91558 L98.5803279,141.512928 L99.1650273,142.027116 L99.0246995,142.426519 L98.451694,142.367956 L100.334426,144.218564 L101.994973,145.483536 L102.509508,146.467403 L102.415956,146.97105 L102.182077,147.193591 L101.666372,146.632552 L101.327246,145.905193 L101.327246,146.853923 L101.737705,147.767514 L102.36918,147.954917 L103.832098,147.603536 L105.561639,147.439558 L106.228197,147.135028 L107.11577,146.726254 L108.087541,146.783646 L110.847322,145.202431 L111.899781,145.050166 L112.683279,145.085304 L112.95224,144.804199 L112.765137,144.136575 L112.988492,143.539227 L113.490164,143.082431 L116.413661,142.590497 L120.260984,144.840508 L124.704699,150.825702 L130.446448,155.860994 L131.744481,157.922431 L131.826339,158.87116 L131.756175,159.398232 L131.650929,162.947182 L130.680328,166.05105 L129.638393,170.911823 L130.038328,171.778564 L130.387978,172.305635 L130.750492,172.610166 L131.054536,172.317348 L131.650929,172.504751 L132.036831,172.165083 L132.200546,171.778564 L132.364262,170.583867 L131.954973,170.279337 L131.500077,169.459448 L131.931585,169.236906 L132.551366,169.518011 L133.20623,170.513591 L133.451803,170.643602 L134.024809,170.209061 L134.46918,170.700994 L134.52765,171.040663 L134.200219,171.837127 L133.20623,172.986144 L131.943279,174.882431 L131.381967,174.999558 L131.077923,175.199845 L131.732787,175.820619 L132.118689,176.416796 L134.094973,180.621657 L135.055049,182.144309 L135.755519,182.940773 L136.270055,183.210166 L136.96,183.31558 L137.088634,182.895094 L136.948306,182.120884 L137.883825,181.792928 L138.794787,181.817525 L138.199563,182.683094 L138.082623,184.978785 L138.502437,186.841105 L138.86612,186.994541 L139.263716,186.841105 L139.813333,185.86895 L140.246011,185.459006 L140.83071,185.190785 L140.093989,186.289436 L139.393519,187.602431 L139.696393,187.883536 L140.408557,188.281768 L141.017814,191.820177 L142.070273,193.810166 L143.695738,194.922873 L145.930459,195.660773 L146.150306,196.867182 L147.449508,198.670939 L148.700765,201.294586 L149.319377,201.645967 L150.162514,201.96221 L150.606885,202.536133 L150.337923,203.016354 L148.876175,201.86968 L148.456361,201.985635 L148.210787,202.477569 L148.117235,202.969503 L148.74871,204.071669 L149.835082,204.129061 L151.483934,203.613702 L152.863825,203.859669 L154.827246,202.934365 L155.635301,202.969503 L156.933333,201.739669 L157.366011,200.58011 L157.657191,198.249282 L158.558798,196.750055 L159.225355,195.088022 L159.400765,195.133702 L159.470929,195.520221 L159.576175,195.626807 L159.751585,191.994696 L160.511694,186.64316 L160.418142,183.702099 L159.998328,181.406409 L159.587869,180.305414 L158.488634,178.77105 L153.823902,166.706961 L153.425137,165.570829 L152.736361,164.212155 L152.314208,161.975028 L151.975082,161.038011 L151.751727,159.515359 L152.080328,159.503646 L152.488448,159.831602 L152.396066,160.452376 L152.549257,161.084862 L153.274284,161.483094 L153.401749,161.764199 L152.957377,162.538409 L152.922295,163.203691 L153.343279,164.680663 L153.647322,164.305856 L153.775956,163.345414 L154.011005,162.526696 L154.289322,162.466961 L154.115082,164.996906 L154.25541,166.777238 L155.471585,169.800287 L155.939344,170.220773 L155.097377,168.112486 L154.664699,166.731558 L154.536066,165.607138 L154.581672,164.44758 L154.734863,163.67337 L155.213148,162.93547 L154.769945,162.057017 L151.074645,155.88442 L148.817705,150.765967 L147.226153,146.514254 L146.256721,142.110276 L145.718798,140.471669 L144.935301,135.751448 L144.420765,134.590718 L144.420765,134.589547 L142.479563,134.484133 L140.199235,133.641989 L139.591148,133.47684 L139.357268,133.548287 L139.076612,133.863359 L138.74918,134.003912 L138.468525,134.589547 L138.433443,135.59684 L138.643934,136.791536 L138.550383,137.835138 L138.199563,138.759271 L137.637082,139.180928 L137.088634,139.122365 L136.737814,138.900994 L136.608011,138.536729 L136.539016,137.788287 L136.246667,137.131204 L136.234973,136.710718 L134.480874,136.59242 L132.726776,136.476464 L130.972678,136.359337 L129.218579,136.241039 L127.464481,136.123912 L125.710383,136.006785 L123.956284,135.890829 L122.202186,135.773702 L120.448087,135.656575 L118.693989,135.539448 L116.939891,135.42232 L115.185792,135.304022 L113.431694,135.188066 L111.677596,135.069768 L109.923497,134.952641 L108.169399,134.836685 L107.140328,134.765238 L107.105246,134.274475 L106.228197,132.189613 L105.770962,131.18232 L102.215989,131.194033 Z M107.993989,147.464155 L107.281825,147.954917 L105.925322,148.610829 L105.38623,148.48316 L104.650678,148.540552 L105.841126,148.868508 L106.953224,148.411713 L108.824262,147.27558 L107.993989,147.464155 Z M156.829257,173.394917 L158.079344,176.709613 L159.096721,178.817901 L158.920142,177.905481 L157.061967,172.961547 L156.617596,171.520884 L156.16153,170.831006 L156.829257,173.394917 Z M137.474536,186.350343 L138.025322,187.55558 L138.037016,186.841105 L137.626557,185.447293 L137.100328,185.013923 L137.474536,186.350343 Z M136.924918,187.709017 L137.357596,188.129503 L138.151617,188.364928 L138.550383,188.048685 L137.673333,187.954983 L137.42659,187.754696 L136.737814,186.889127 L136.924918,187.709017 Z M157.89224,201.599116 L157.107574,202.137901 L157.074831,202.91211 L156.536907,203.566851 L155.962732,203.929945 L155.682077,204.505039 L154.827246,205.72316 L154.581672,206.295912 L156.769617,204.023646 L158.149508,201.518298 L157.89224,201.599116 Z M153.657847,206.975249 L153.950197,206.916685 L154.208634,206.496199 L154.091694,206.461061 L153.657847,206.975249 Z M151.741202,207.947403 L151.635956,208.123094 L151.845279,208.123094 L152.302514,207.913436 L152.325902,207.736575 L152.17388,207.607735 L151.741202,207.947403 Z M149.027027,208.954696 L148.456361,209.236972 L148.981421,209.447801 L149.484262,209.165525 L150.09235,209.037856 L150.735519,208.650166 L149.027027,208.954696 Z M145.332896,208.966409 L145.800656,209.762873 L145.800656,210.125967 L145.951508,210.207956 L146.280109,209.96316 L146.443825,209.75116 L146.420437,209.541503 L145.34459,208.75558 L145.332896,208.966409 Z M143.590492,210.219669 L143.017486,210.701061 L143.73082,210.582762 L144.105027,210.395359 L144.117891,210.055691 L143.777596,209.493481 L143.590492,210.219669 Z M141.042372,211.08758 L141.06459,211.274983 L141.345246,211.251558 L141.825869,211.121547 L141.836393,210.87558 L141.520656,210.863867 L141.042372,211.08758 Z" id="Fill-17"></path>
                <path d="M145.683716,131.181149 L145.192568,134.296729 L144.982077,133.195735 L144.958689,132.13105 L145.332896,131.498564 L145.683716,131.181149 Z M151.70612,117.570983 L151.144809,118.661436 L149.8,119.340773 L149.39071,119.316177 L149.051585,119.515293 L149.250383,120.007227 L149.589508,120.358608 L149.577814,120.686564 L149.226995,121.131646 L148.525355,121.260486 L148.12776,121.775845 L148.256393,122.256066 L148.490273,122.525459 L148.443497,122.982254 L147.648306,123.450762 L147.461202,123.907558 L147.858798,124.036398 L148.162842,123.907558 L148.386197,124.00126 L147.905574,124.763757 L147.472896,125.231094 L147.063607,126.062696 L146.116393,126.29695 L146.151475,126.567514 L146.689399,126.801768 L147.13377,127.445967 L146.292973,128.627779 L145.765574,128.534077 L145.449836,128.277569 L145.251038,129.213414 L145.332896,129.705348 L145.134098,130.724354 L144.806667,131.942475 L144.58565,132.446122 L144.632426,133.371425 L144.771585,134.274475 L142.91224,134.156177 L140.631913,133.312862 L140.023825,133.150055 L139.789945,133.21916 L139.50929,133.536575 L139.181858,133.675956 L138.901202,134.261591 L138.86612,135.268884 L139.076612,136.464751 L138.98306,137.506011 L138.63224,138.431315 L138.070929,138.852972 L137.522481,138.794409 L137.170492,138.573039 L137.041858,138.208773 L136.971694,137.45916 L136.679344,136.803249 L136.66765,136.381591 L134.913552,136.265635 L133.159454,136.147337 L131.405355,136.031381 L129.651257,135.913083 L127.897158,135.795956 L126.14306,135.68 L124.388962,135.561702 L122.634863,135.445746 L120.880765,135.327448 L119.126667,135.21032 L117.372568,135.094365 L115.61847,134.976066 L113.864372,134.86011 L112.110273,134.742983 L110.356175,134.624685 L108.602077,134.508729 L107.573005,134.437282 L107.537923,133.945348 L106.660874,131.861657 L106.204809,130.854365 L105.538251,129.36568 L105.257596,127.082873 L105.678579,123.52221 L105.549945,122.714033 L104.91847,120.886851 L104.930164,119.550431 L105.585027,117.348442 L105.912459,116.096354 L106.368525,115.393591 L107.070164,114.807956 L107.164885,114.292597 L106.64918,113.846343 L106.450383,113.307558 L106.580186,112.675072 L106.122951,111.15242 L104.56765,107.534365 L104.345464,106.30453 L104.076503,105.542033 L103.784153,103.868287 L103.491803,102.19337 L103.199454,100.517282 L102.907104,98.8435359 L102.614754,97.1557348 L102.322404,95.4702762 L102.030055,93.7824751 L101.737705,92.0970166 L101.445355,90.398674 L101.153005,88.6991602 L100.860656,87.0008177 L100.568306,85.3036464 L100.275956,83.6053039 L99.9836066,81.8952486 L99.6912568,80.1851934 L99.3989071,78.4751381 L102.977268,78.5208177 L106.555628,78.5676685 L110.133989,78.6145193 L113.71235,78.6613702 L117.045137,78.6145193 L120.377923,78.5676685 L123.71071,78.5208177 L127.043497,78.4751381 L126.973333,78.4868508 L126.43541,79.387558 L124.821639,81.0859006 L124.388962,82.3871823 L126.470492,83.839558 L126.482186,83.8512707 L127.721749,85.0225414 L128.57541,85.4781657 L129.440765,85.6198895 L129.978689,86.0064088 L130.294426,86.9422541 L132.820328,91.5699448 L135.439781,93.9476243 L136.49224,95.118895 L137.01847,96.2433149 L139.252022,98.0939227 L140.012131,99.0895028 L140.047213,99.8379448 L140.316175,100.376729 L140.807322,100.694144 L141.275082,101.373481 L141.731148,102.404199 L142.619891,103.306077 L143.954175,104.067403 L144.923607,105.812597 L145.543388,108.517061 L146.174863,110.087735 L147.13377,110.743646 L148.443497,113.05105 L148.864481,114.420265 L148.841093,115.627845 L149.50882,116.564862 L151.70612,117.572155 L151.70612,117.570983 Z" id="Fill-20"></path>
                <path d="M31.7842623,150.496575 L31.3749727,150.672265 L29.5507104,149.582983 L29.4337705,149.114475 L30.3342077,148.692818 L30.8838251,148.727956 L31.7491803,149.278453 L32.064918,149.430718 L32.2169399,149.65326 L32.135082,150.004641 L31.7842623,150.496575 Z M63.7556284,147.814365 L63.159235,148.470276 L63.182623,148.224309 L63.6269945,147.556685 L63.9427322,147.299006 L63.7556284,147.814365 Z M64.4338798,146.619669 L64.1298361,147.017901 L64.4338798,145.085304 L64.0012022,143.457238 L64.4572678,144.171713 L64.6092896,145.015028 L64.4338798,146.618497 L64.4338798,146.619669 Z M60.0720219,143.117569 L60.1071038,143.703204 L59.5691803,143.410387 L58.7739891,143.386961 L59.1248087,143.187845 L59.3703825,142.988729 L59.4990164,142.777901 L60.5058689,142.04 L60.2135191,142.578785 L60.0720219,143.117569 Z M56.7988743,141.73547 L56.0492896,142.075138 L52.0277268,140.775028 L51.0208743,139.720884 L50.1321311,139.498343 L49.0445902,139.369503 L47.8751913,140.657901 L46.9864481,142.403094 L48.4014208,143.351823 L49.6059016,143.808619 L51.6055738,143.422099 L52.7059781,142.578785 L53.6052459,142.60221 L54.0379235,142.426519 L54.4355191,141.981436 L55.2073224,142.332818 L55.2307104,142.684199 L54.6810929,143.176133 L53.9911475,143.586077 L53.5701639,144.078011 L54.3536612,145.061878 L55.593224,145.389834 L56.0609836,145.249282 L56.3533333,144.148287 L57.1134426,143.433812 L58.1425137,143.586077 L57.9904918,144.03116 L58.1308197,144.452818 L58.6102732,145.167293 L58.5529727,146.198011 L58.6465246,146.443978 L57.5355956,146.900773 L56.7053224,147.053039 L56.0375956,147.650387 L56.3884153,147.990055 L55.7101639,148.294586 L55.2540984,148.177459 L55.0202186,148.294586 L54.951224,148.65768 L54.599235,148.997348 L55.1020765,150.016354 L56.1428415,150.683978 L56.8795628,151.51558 L59.8264481,152.604862 L60.5397814,152.569724 L61.2414208,153.670718 L61.8027322,154.045525 L62.3535191,154.231757 L62.2938798,154.994254 L61.3232787,155.544751 L61.0660109,156.200663 L60.8204372,156.574298 L60.3877596,156.106961 L59.943388,155.767293 L58.902623,156.798011 L58.3997814,157.020552 L58.6453552,155.907845 L58.2477596,155.474475 L57.6513661,154.350055 L56.7860109,153.659006 L56.1779235,153.424751 L55.6984699,152.979669 L55.1254645,152.803978 L54.6343169,152.850829 L53.8040437,152.593149 L53.7455738,151.995801 L53.511694,151.549547 L52.8685246,151.023646 L49.7696175,150.028066 L49.7462295,150.438011 L49.9567213,150.742541 L50.4010929,150.95337 L50.9390164,151.350431 L50.9390164,152.546298 L50.7051366,153.049945 L50.6115847,153.76442 L50.4127869,154.490608 L50.0268852,155.063359 L49.184918,155.449878 L48.8118798,155.123094 L48.202623,153.55242 L47.3501311,153.060486 L45.992459,153.003094 L45.0686339,153.353304 L44.0629508,154.877127 L43.257235,155.123094 L40.4845902,154.338343 L37.3155191,153.143646 L37.397377,152.745414 L37.9002186,152.616575 L38.8591257,152.780552 L38.8123497,152.370608 L37.8417486,151.023646 L37.6663388,150.414586 L37.7961421,149.676685 L37.479235,149.688398 L36.8945355,150.309171 L34.8831694,149.782099 L34.3218579,149.149613 L33.140765,147.369282 L31.4685246,147.310718 L30.6861967,146.256575 L29.318,146.71337 L28.6268852,147.217017 L28.0187978,147.988884 L28.2526776,148.388287 L28.860765,149.020773 L28.5801093,149.325304 L26.6400765,149.782099 L22.1250273,149.278453 L20.8036066,148.798232 L19.0261202,147.789768 L16.5703825,146.97105 L15.3892896,146.84221 L14.2315847,147.006188 L10.8637158,147.088177 L10.0802186,147.310718 L9.4136612,147.662099 L8.98098361,147.27558 L8.78218579,146.58453 L9.16808743,146.467403 L9.60076503,146.069171 L9.99836066,145.272707 L10.0451366,144.792486 L9.77734426,144.475072 L10.5140656,143.211271 L10.688306,142.754475 L10.5713661,140.599337 L10.2439344,139.814586 L10.2907104,139.35779 L10.6415301,138.173635 L10.5830601,137.097238 L11.1923169,135.784243 L11.6366885,135.104906 L12.1383607,133.712265 L12.2564699,132.809215 L12.4657923,132.129878 L12.3149399,131.391978 L12.6645902,130.866077 L12.4307104,130.127006 L12.3617158,129.154851 L11.9290383,128.781215 L11.1677596,127.32884 L11.1923169,126.696354 L10.3959563,125.33768 L10.3842623,124.869171 L9.62415301,124.166409 L9.47213115,123.709613 L9.40196721,121.823867 L9.19264481,121.27337 L8.53661202,120.184088 L7.01639344,118.602873 L7.01639344,116.963094 L7.01639344,115.323315 L7.01639344,113.682365 L7.01639344,112.032044 L7.01639344,110.380552 L7.01639344,108.729061 L7.01639344,107.077569 L7.01639344,105.426077 L8.9926776,105.426077 L10.9689617,105.426077 L12.9464153,105.426077 L14.9215301,105.426077 L16.8989836,105.426077 L18.8740984,105.426077 L20.8503825,105.426077 L22.8266667,105.426077 L24.8029508,105.426077 L26.7804044,105.426077 L28.7555191,105.426077 L30.7329727,105.426077 L32.7080874,105.426077 L34.6843716,105.426077 L36.6606557,105.426077 L38.8252131,105.414365 L38.8825137,106.058564 L39.4099126,106.445083 L39.4449945,107.134961 L38.9760656,108.131713 L38.9760656,108.822762 L39.4566885,109.209282 L39.4321311,109.619227 L38.9059016,110.052597 L38.8252131,110.521105 L39.1982514,111.024751 L39.3619672,111.610387 L39.3268852,112.278011 L39.8180328,113.144751 L40.5793115,113.695249 L41.0809836,114.35116 L41.1277596,114.714254 L41.1640109,115.053923 L41.0575956,115.532972 L40.4272896,116.236906 L39.9466667,116.751094 L39.6543169,116.939669 L39.5034645,117.289878 L39.4566885,118.040663 L38.7538798,119.012818 L37.3272131,120.137238 L36.3811694,121.566188 L35.9122404,123.287956 L35.4210929,124.377238 L34.9065574,124.845746 L34.6492896,125.747624 L34.6492896,127.082873 L34.3218579,127.820773 L33.6669945,127.961326 L33.5266667,128.722652 L33.9020437,130.104751 L33.7371585,130.678674 L33.2810929,131.13547 L33.2343169,131.486851 L35.8654645,131.498564 L38.508306,131.498564 L41.1523169,131.498564 L43.7951585,131.498564 L46.4368306,131.498564 L49.0796721,131.498564 L51.7236831,131.498564 L54.3665246,131.498564 L54.0379235,132.974365 L53.2661202,134.952641 L53.2310383,135.469171 L53.4310055,136.11337 L53.4310055,136.476464 L53.7233552,137.015249 L54.3548306,137.554033 L54.9149727,138.36221 L55.4061202,139.814586 L55.5359235,140.48221 L55.9440437,141.407514 L56.1545355,141.583204 L56.4597486,141.687448 L56.7988743,141.73547 Z" id="Fill-34"></path>
                <path d="M66.8416721,140.83242 L66.7013443,140.972972 L65.7307432,140.704751 L65.1343497,140.458785 L65.0291038,140.212818 L66.6674317,140.657901 L66.8416721,140.83242 Z M71.0748962,78.4973923 L72.0454973,79.3758453 L72.0104153,79.6932597 L71.9987213,79.9029171 L71.9297268,80.5365746 L71.6595956,83.0079558 L71.3918033,85.466453 L71.1216721,87.9261215 L70.8538798,90.3752486 L70.5837486,92.8232044 L70.3159563,95.2594475 L70.0458251,97.6956906 L69.7780328,100.11905 L69.5079016,102.544751 L69.2401093,104.969282 L68.9699781,107.380928 L68.7021858,109.794917 L68.4320546,112.196022 L68.1642623,114.597127 L67.8941311,116.986519 L67.6263388,119.375912 L67.7432787,121.799271 L67.8590492,124.223801 L67.9771585,126.63779 L68.092929,129.049436 L68.2098689,131.450541 L68.3279781,133.851646 L68.4437486,136.241039 L68.5840765,138.864685 L65.3682295,139.063801 L63.9649508,138.419602 L63.3802514,138.290762 L63.0294317,138.303646 L61.3922732,138.900994 L59.521235,139.356619 L59.0768634,139.216066 L58.445388,139.193812 L57.0888852,140.751602 L56.2363934,141.138122 L55.9662623,141.032707 L55.6622186,140.926122 L55.4528962,140.751602 L55.0424372,139.826298 L54.9149727,139.157503 L54.4238251,137.705127 L53.8613443,136.898122 L53.2298689,136.359337 L52.9375191,135.820552 L52.9375191,135.456287 L52.7387213,134.812088 L52.7749727,134.296729 L53.546776,132.317282 L53.8730383,130.842652 L51.2301967,130.842652 L48.5885246,130.842652 L45.9456831,130.842652 L43.3016721,130.842652 L40.6588306,130.842652 L38.0171585,130.842652 L35.3743169,130.842652 L32.7431694,130.829768 L32.7899454,130.478387 L33.2460109,130.022762 L33.4085574,129.447669 L33.0355191,128.06674 L33.1746776,127.304243 L33.8307104,127.163691 L34.1581421,126.42579 L34.1581421,125.091713 L34.4154098,124.188663 L34.928776,123.721326 L35.4210929,122.630873 L35.8876831,120.909105 L36.8360656,119.481326 L38.2627322,118.356906 L38.9632022,117.38358 L39.0099781,116.633967 L39.162,116.282586 L39.4543497,116.096354 L39.9338033,115.579823 L40.5652787,114.878232 L40.6705246,114.398011 L40.636612,114.058343 L40.5898361,113.694077 L40.0858251,113.039337 L39.3268852,112.48884 L38.8357377,111.622099 L38.8696503,110.953304 L38.7059344,110.367669 L38.3317268,109.865193 L38.4135847,109.395514 L38.9409836,108.962144 L38.9632022,108.552199 L38.4837486,108.16568 L38.4837486,107.475801 L38.9515082,106.480221 L38.9164262,105.788 L38.3913661,105.401481 L38.3317268,104.757282 L38.2978142,104.429326 L38.8006557,102.11021 L38.6837158,101.806851 L38.1797049,101.102917 L38.121235,100.249061 L38.4252787,99.2066298 L38.2732568,98.398453 L37.8522732,98.1056354 L37.7470273,97.7765083 L37.6195628,97.2962873 L38.074459,96.8512044 L38.0990164,96.4424309 L37.6885574,96.066453 L37.9458251,95.5393812 L38.8696503,94.8600442 L39.1280874,94.4735249 L39.3958798,94.0635801 L39.560765,93.0914254 L39.4321311,92.5057901 L39.208776,92.1192707 L39.3140219,91.9201547 L39.5011257,91.7456354 L40.6015301,91.3930829 L40.9160984,91.147116 L40.9874317,90.8425856 L40.636612,90.0941436 L40.9757377,89.2965083 L41.9919454,88.4531934 L42.5298689,87.7152928 L42.5895082,87.0722652 L43.0806557,86.6025856 L43.9916175,86.309768 L44.552929,85.1162431 L44.7762842,83.0196685 L45.0440765,82.1295028 L45.5130055,82.000663 L45.7585792,81.7078453 L45.8392678,81.0976133 L46.4122732,80.478011 L47.4659016,79.8455249 L47.8857158,79.2235801 L47.7582514,78.8956243 L47.7582514,78.4751381 L50.5636393,78.4751381 L53.4871366,78.4751381 L56.4106339,78.4751381 L59.3341311,78.4751381 L62.2576284,78.4751381 L65.1811257,78.4751381 L68.104623,78.4751381 L71.0748962,78.4973923 Z" id="Fill-50"></path>
                <path d="M199.031694,82.7631602 L198.78612,82.7971271 L198.353443,82.6448619 L197.757049,82.3637569 L197.628415,82.1529282 L198.201421,82.2243757 L199.031694,82.7631602 Z M199.498284,82.9154254 L199.230492,83.0676906 L200.236175,81.4044862 L202.222984,79.2833149 L202.762077,78.9565304 L201.10153,80.759116 L199.499454,82.9154254 L199.498284,82.9154254 Z M207.438503,75.5949834 L205.438831,76.5542541 L205.217814,76.4956906 L206.527541,75.8058122 L207.438503,75.5949834 Z M210.059126,74.9273591 L208.585683,75.2892818 L208.457049,75.173326 L210.152678,74.4108287 L210.690601,71.7063646 L210.760765,70.4519337 L210.503497,68.2499448 L210.515191,67.7943204 L210.795847,68.5076243 L211.041421,70.570232 L210.947869,72.1280221 L210.456721,74.3885746 L210.059126,74.9273591 Z M209.053443,66.611337 L208.889727,66.8912707 L208.153005,65.3932155 L208.900251,65.8722652 L209.030055,66.2716685 L209.053443,66.611337 Z M206.269104,57.1697238 L206.621093,57.1697238 L207.720328,61.5514475 L209.918798,66.3056354 L210.18776,67.1255249 L209.673224,66.412221 L208.04776,63.2720442 L207.135628,60.9763536 L206.269104,57.1697238 Z M205.416612,57.1474696 L205.124262,58.2121547 L205.276284,58.8223867 L205.860984,59.4548729 L206.504153,61.0232044 L207.018689,63.1314917 L206.328743,62.2776354 L205.592022,61.8196685 L204.446011,61.4682873 L203.41694,60.8603978 L203.487104,61.7388508 L203.392383,62.6864088 L202.610055,62.3935912 L202.072131,62.0785193 L202.551585,63.0846409 L201.522514,62.7801105 L200.832568,62.838674 L200.388197,63.730011 L199.790634,64.2687956 L198.90306,64.4433149 L197.581639,63.6234254 L197.159486,62.639558 L196.985246,61.5397348 L196.913913,62.838674 L197.148962,64.1973481 L197.065934,65.2280663 L198.328885,65.4154696 L199.511148,65.252663 L201.113224,65.2995138 L202.153989,65.1003978 L202.785464,64.772442 L204.293989,65.0523757 L204.399235,66.2939227 L204.222656,67.5237569 L204.141967,68.8355801 L204.561781,68.8250387 L205.052929,68.4022099 L205.298503,66.0479558 L206.679563,65.1812155 L207.135628,65.239779 L207.58,66.001105 L207.730852,66.7753149 L207.882874,67.8282873 L207.556612,69.4329282 L205.438831,71.3081326 L203.930306,73.0287293 L203.159672,73.3801105 L202.048743,73.1809945 L200.785792,72.7476243 L200.166011,72.6656354 L199.697082,72.8061878 L199.404732,72.279116 L199.218798,71.3081326 L198.726481,70.9790055 L198.353443,71.0153149 L198.096175,72.0460331 L196.913913,72.3388508 L195.311836,71.9160221 L193.629071,71.0492818 L194.354098,71.9745856 L198.527683,73.7092376 L198.996612,74.0360221 L199.440984,74.5045304 L198.856284,75.2424309 L198.400219,76.0740331 L198.328885,76.731116 L198.166339,77.1398895 L196.505792,78.2525967 L195.604186,78.0534807 L193.301639,76.051779 L194.354098,77.7840884 L195.196066,78.521989 L196.891694,78.9085083 L200.060765,78.2643094 L201.10153,78.9682431 L200.247869,80.2203315 L199.394208,81.0987845 L198.283279,81.1924862 L197.300984,81.4267403 L197.008634,82.0240884 L196.306995,82.0592265 L195.219454,82.0955359 L193.523825,82.1529282 L192.6,82.0123757 L191.301967,83.2422099 L190.81082,83.4073591 L190.132568,83.173105 L189.840219,82.1892376 L189.536175,81.6973039 L189.524481,83.5479116 L189.641421,84.0398453 L189.886995,84.4134807 L188.366776,85.4219448 L186.916721,86.6752044 L186.389322,87.0137017 L185.794098,87.6344751 L184.577923,89.438232 L184.27388,90.7500552 L183.841202,92.2141436 L183.782732,91.5594033 L183.852896,90.4466961 L183.548852,89.1805525 L183.361749,91.5125525 L182.893989,92.5901215 L178.567213,92.518674 L176.824809,93.0574586 L175.233257,91.4528177 L173.74929,89.9418785 L172.264153,88.4321105 L170.779016,86.9211713 L169.29271,85.3973481 L167.808743,83.8746961 L166.323607,82.3520442 L164.83847,80.8305635 L163.283169,80.772 L161.727869,80.7251492 L160.172568,80.6665856 L158.616098,80.6197348 L157.060798,80.56 L155.505497,80.5143204 L153.950197,80.4545856 L152.396066,80.4077348 L152.336426,79.3547624 L152.28965,78.6039779 L151.319049,77.3272928 L150.747213,76.5788508 L149.518175,77.2230497 L149.44918,76.9068066 L149.495956,76.3445967 L149.39071,76.1454807 L149.051585,76.0037569 L147.30918,75.921768 L145.565607,75.8409503 L143.824372,75.7589613 L142.081967,75.6758011 L140.339563,75.5949834 L138.595989,75.5129945 L136.854754,75.4298343 L135.11235,75.3490166 L134.714754,75.2201768 L133.931257,75.6640884 L131.861421,76.332884 L130.842874,76.9185193 L130.469836,76.8822099 L128.715738,77.4573039 L126.961639,78.0300552 L126.762842,78.0300552 L123.430055,78.0769061 L120.097268,78.1237569 L116.763311,78.1706077 L113.431694,78.2174586 L113.839814,75.3607293 L114.121639,74.7036464 L114.437377,74.5513812 L115.583388,74.5396685 L116.308415,74.2117127 L116.951585,72.4899448 L118.413333,71.1312707 L119.068197,70.7916022 L120.050492,70.5233812 L122.377596,70.1954254 L124.880109,68.8718895 L126.680984,67.6174586 L128.10765,67.2672486 L128.550852,66.8092818 L128.879454,66.2119337 L129.078251,65.3920442 L129.230273,65.2175249 L130.060546,65.2749171 L130.692022,64.560442 L131.300109,64.1504972 L131.908197,63.9162431 L132.282404,63.9045304 L132.422732,64.1153591 L132.527978,64.7255912 L132.656612,64.9247072 L132.91388,64.9352486 L133.264699,64.7946961 L133.732459,64.4081768 L134.948634,63.1900552 L135.755519,62.7227182 L136.995082,62.4521547 L137.895519,63.0963536 L138.433443,62.8749834 L140.012131,60.3801768 L140.642437,59.9222099 L141.111366,59.7476906 L141.929945,59.7113812 L141.941639,59.0215028 L142.222295,57.9779006 L142.257377,57.2645967 L142.760219,56.2209945 L142.947322,56.4329945 L146.934973,56.4669613 L150.921454,56.5020994 L154.910273,56.5372376 L158.897923,56.573547 L162.885574,56.6075138 L166.873224,56.6426519 L170.859705,56.6789613 L174.847355,56.7140994 L178.835005,56.7480663 L182.823825,56.7832044 L186.811475,56.8195138 L190.799126,56.8546519 L194.785607,56.8886188 L198.773257,56.9237569 L202.760907,56.9600663 L205.415443,57.1474696 L205.416612,57.1474696 Z" id="Fill-54"></path>
                <polygon id="Fill-80" points="176.697344 93.9124862 176.557016 93.959337 173.645213 95.9270718 172.778689 96.7938122 170.38259 100.120221 169.774503 102.240221 169.283355 101.351227 169.400295 100.682431 169.411989 100.133105 168.803902 101.304376 169.376907 103.014431 168.862372 103.669171 167.283683 104.887293 166.418328 105.086409 165.436033 105.426077 165.131989 106.632486 163.809399 107.733481 163.038765 108.225414 161.635486 107.920884 162.068164 108.98674 161.553628 109.783204 160.653191 110.403978 159.542262 110.80221 158.910787 110.755359 158.372863 110.967359 157.940186 111.481547 156.898251 111.961768 155.822404 111.693547 154.595705 111.528398 153.917454 111.809503 155.063464 112.289724 155.671552 112.970232 155.554612 113.895536 155.237705 114.245746 154.513847 114.727138 154.198109 114.655691 154.011005 114.22232 153.775956 113.320442 153.438 113.507845 153.37953 113.929503 153.08718 114.081768 152.058109 112.641105 152.11541 113.742099 152.467399 114.585414 152.818219 115.019956 153.169038 115.264751 153.250896 115.662983 152.549257 116.611713 152.186743 116.823713 151.543574 116.974807 151.18106 117.560442 151.298 118.075801 149.064448 117.03337 148.397891 116.096354 148.421279 114.889945 148.000295 113.519558 146.690568 111.223867 145.743355 110.567956 145.11188 108.998453 144.492098 106.281105 143.521497 104.547624 142.188383 103.786298 141.29847 102.88442 140.843574 101.853702 140.374645 101.174365 139.884667 100.858122 139.615705 100.329878 139.580623 99.5697238 138.819344 98.5729724 136.586962 96.7235359 136.060732 95.599116 135.008273 94.4278453 132.38765 92.0501657 129.874612 87.4236464 129.862918 87.4236464 129.54718 86.4866298 129.009257 86.1001105 128.142732 85.959558 127.29024 85.5027624 126.049508 84.3314917 126.038984 84.319779 123.956284 82.8674033 124.390131 81.5672928 125.992208 79.8572376 126.530131 78.9541878 126.611989 78.9436464 126.810787 78.9436464 128.564885 78.3685525 130.318984 77.8075138 130.693191 77.8309392 131.709399 77.2453039 133.76871 76.5776796 134.563902 76.1325967 134.961497 76.2614365 136.703902 76.3317127 138.458 76.4137017 140.200404 76.4839779 141.941639 76.5647956 143.685213 76.6479558 145.439311 76.718232 147.181716 76.800221 148.92412 76.8704972 149.263246 77.0110497 149.368492 77.2101657 149.321716 77.7723757 149.39071 78.0886188 150.619749 77.4432486 151.191585 78.1823204 152.163355 79.4590055 152.210131 80.2086188 152.267432 81.2627624 153.822732 81.3096133 155.379202 81.3681768 156.934503 81.4150276 158.489803 81.4735912 160.045104 81.520442 161.600404 81.5790055 163.155705 81.6258564 164.711005 81.6844199 166.196142 83.2059006 167.681279 84.7297238 169.166415 86.2523757 170.651552 87.7633149 172.136689 89.2859669 173.633519 90.7969061 175.118656 92.3078453"></polygon>
                <polygon id="Fill-84" points="120.880765 57.4274033 123.383279 57.439116 128.715738 57.4625414 132.503421 57.4859669 135.615191 57.4976796 137.451148 57.5093923 139.766557 57.521105 140.281093 57.24 141.438798 57.2868508 142.994098 57.3454144 142.490087 58.399558 142.456175 59.1023204 142.175519 60.1447514 142.163825 60.8358011 141.35694 60.869768 140.877486 61.0466298 140.246011 61.5034254 138.679016 63.998232 138.129399 64.2207735 137.227792 63.5765746 135.989399 63.8459669 135.181344 64.3144751 133.978033 65.5325967 133.510273 65.919116 133.14776 66.0596685 132.890492 66.0479558 132.761858 65.8488398 132.656612 65.239779 132.516284 65.0289503 132.142077 65.0289503 131.53282 65.2632044 130.925902 65.6731492 130.294426 66.3759116 129.464153 66.3173481 129.312131 66.4930387 129.113333 67.3129282 128.785902 67.9102762 128.34153 68.3670718 126.902 68.718453 125.101126 69.9717127 122.610306 71.2952486 120.271508 71.6232044 119.300907 71.8925967 118.647213 72.2322652 117.185464 73.5909392 116.542295 75.3127072 115.805574 75.640663 114.670087 75.6523757 114.355519 75.8046409 114.063169 76.4605525 113.65388 79.3067403 110.075519 79.2716022 106.497158 79.2247514 102.930492 79.1779006 99.3521311 79.1427624 97.5863388 79.119337 95.8205464 79.0959116 94.0547541 79.0713149 92.2889617 79.0607735 90.5231694 79.0373481 88.757377 79.0139227 86.9915847 79.0022099 85.2257923 78.9776133 83.46 78.9553591 81.6942077 78.9307624 79.9272459 78.920221 78.162623 78.8967956 76.3968306 78.8733702 74.6310383 78.8616575 72.8640765 78.8370608 71.0994536 78.8148066 70.9591257 78.8265193 71.0877596 78.9904972 71.2865574 79.1661878 68.2917268 79.1661878 65.3682295 79.1544751 62.4447322 79.1544751 59.521235 79.1544751 56.5977377 79.1427624 53.6742404 79.1427624 50.7507432 79.1427624 47.9453552 79.1298785 47.9453552 79.0959116 48.3534754 78.5337017 49.6059016 77.6189392 50.1555191 76.4137017 49.9918033 74.9250166 50.4478689 73.5909392 51.5342404 72.3845304 51.9797814 71.1898343 51.7926776 70.0056796 52.3306011 69.0464088 53.6052459 68.2956243 53.7806557 67.9922652 53.7338798 67.7685525 53.7104918 67.5108729 53.7210164 67.4066298 53.7806557 67.1712044 54.0601421 67.0435359 54.4355191 66.9252376 54.5980656 66.7378343 54.5980656 66.4333039 54.3770492 65.8945193 54.4238251 65.6497238 54.5056831 65.2514917 55.1137705 64.2430276 55.2073224 63.3891713 54.7629508 62.6735249 54.9839672 62.2987182 55.2657923 62.1933039 55.64 62.1359116 55.7569399 61.9719337 55.7569399 61.7599337 55.4528962 61.2925967 55.5347541 60.8814807 56.0726776 60.588663 56.2363934 59.8624751 56.0492896 58.8446409 56.8210929 58.8200442 56.8444809 58.8914917 56.9965027 59.0086188 57.2069945 58.8914917 57.2303825 58.8563536 59.4159891 58.8563536 61.3115847 58.8563536 63.2165355 58.8563536 65.1121311 58.866895 67.017082 58.866895 68.9126776 58.866895 70.8176284 58.866895 72.5378142 58.866895 72.5717268 58.8434696 72.5717268 57.6265193 72.1285246 56.2209945 72.1858251 56.2209945 73.6721311 56.3732597 74.6427322 56.4669613 74.9573005 56.8874475 78.6303825 56.8171713 82.2906011 56.7480663 85.9508197 56.6766188 89.6227322 56.6075138 93.4466667 56.7351823 97.2589071 56.8757348 101.082842 57.0057459 104.906776 57.1462983 108.73071 57.2739669 112.554645 57.4028066 116.366885 57.5445304 120.19082 57.6721989 120.284372 57.638232 120.367399 57.6136354 120.448087 57.5784972 120.541639 57.5445304 120.623497 57.5199337 120.717049 57.4847956 120.798907 57.4613702"></polygon>
                <path d="M56.9368634,58.6794917 L56.1650601,58.7040884 L56.1311475,58.5401105 L56.1779235,58.1653039 L56.235224,58.0001547 L56.3872459,57.9661878 L56.5638251,57.9661878 L56.8093989,58.3163978 L56.9368634,58.6794917 Z M132.608667,31.7648619 L132.867104,32.1513812 L132.982874,34.2233591 L132.901016,34.6344751 L132.526809,35.4766188 L132.550197,35.9217017 L132.867104,36.6244641 L134.036503,38.241989 L134.152273,38.8733039 L134.608339,39.4940773 L135.005934,40.4076685 L136.257191,42.3636906 L138.198393,43.9800442 L139.718612,44.4134144 L135.555552,47.7749613 L133.650601,48.9930829 L131.836863,49.9664088 L131.684842,50.1292155 L131.275552,51.2067845 L130.176317,52.1566851 L129.486372,53.1510939 L127.837519,53.9826961 L126.66812,55.1188287 L123.732929,56.2315359 L122.084077,56.6180552 L120.973148,57.2751381 L120.89129,57.309105 L120.809432,57.3442431 L120.727574,57.3805525 L120.645716,57.4156906 L120.563858,57.4496575 L120.482,57.4847956 L120.401311,57.521105 L120.318284,57.5562431 L116.49435,57.4274033 L112.670415,57.2973923 L108.846481,57.1697238 L105.022546,57.040884 L101.198612,56.9108729 L97.3746776,56.7832044 L93.5507432,56.6543646 L89.7268087,56.5255249 L86.0665902,56.5958011 L82.4063716,56.6649061 L78.746153,56.7363536 L75.0859344,56.8054586 L74.7585027,56.3849724 L73.7995956,56.2912707 L72.3132896,56.1390055 L72.2559891,56.1390055 L72.6886667,57.5433591 L72.6991913,58.7614807 L72.6652787,58.7743646 L70.9450929,58.7743646 L69.0401421,58.7743646 L67.1340219,58.7743646 L65.2279016,58.7743646 L63.3217814,58.7743646 L61.4156612,58.7743646 L59.509541,58.7743646 L57.322765,58.7743646 L57.9074645,57.5796685 L58.410306,57.2634254 L58.6441858,57.2036906 L59.1938033,57.4274033 L59.462765,57.5093923 L60.0474645,57.0877348 L60.562,55.8579006 L60.8543497,54.5460773 L60.9362077,53.1639779 L60.585388,52.0629834 L60.4684481,51.3836464 L60.8075738,50.5403315 L61.7781749,49.4276243 L63.6842951,49.3913149 L66.5376284,50.4349171 L68.104623,50.7394475 L68.3852787,50.2943646 L68.3034208,49.4979006 L67.8707432,48.3500552 L67.7187213,47.4950276 L67.8473552,46.9328177 L69.0050601,46.2886188 L71.1906667,45.5507182 L72.1039672,44.5902762 L71.7414536,43.3955801 L71.8700874,42.3062983 L72.4781749,41.3107182 L72.8173005,41.0647514 L73.0394863,40.8996022 L73.5540219,41.0764641 L73.9516175,40.9933039 L74.2322732,40.6665193 L74.3492131,40.1511602 L74.3024372,39.4952486 L74.4532896,39.3418122 L74.6520874,39.3078453 L75.1911803,39.6475138 L75.7992678,39.7283315 L76.4073552,39.5292155 L76.7920874,39.7177901 L76.9569727,40.2917127 L77.1908525,40.4674033 L77.4948962,40.2448619 L77.658612,39.7177901 L77.670306,38.8861878 L77.7989399,38.7561768 L77.9275738,38.8627624 L78.0912896,39.120442 L78.5590492,39.2258564 L79.2373005,38.9904309 L80.1728197,39.189547 L81.973694,40.1511602 L82.7221093,40.8422099 L83.2483388,40.6196685 L83.7862623,39.7177901 L84.6165355,39.0033149 L85.7157705,38.4762431 L86.8033115,38.6976133 L87.8791585,39.6814807 L88.6977377,39.881768 L89.2590492,39.2961326 L89.5513989,38.6507624 L89.5747869,37.9374586 L89.7981421,37.4794917 L90.2062623,37.2803757 L90.3582842,36.9407072 L90.2647322,36.4616575 L90.568776,36.1922652 L91.2821093,36.121989 L91.3990492,35.9217017 L91.3171913,35.7354696 L91.3288852,35.641768 L91.539377,35.641768 L91.8434208,35.8525967 L92.1825464,36.321105 L92.3579563,36.9770166 L93.0245137,37.6212155 L94.1705246,38.241989 L95.0709617,38.3474033 L95.7375191,37.9374586 L96.3456066,36.8598895 L96.906918,35.1264088 L97.6436393,34.1425414 L98.5440765,33.92 L99.1989399,33.2758011 L99.6082295,32.2099448 L100.298175,31.3549171 L101.268776,30.7107182 L101.642984,29.7737017 L101.420798,28.5555801 L101.853475,27.8996685 L102.941016,27.7942541 L103.607574,27.9348066 L103.993475,28.2627624 L104.274131,28.4150276 L104.449541,28.4618785 L104.823749,28.3681768 L105.279814,28.1339227 L107.396426,27.3491713 L108.508525,26.6464088 L108.624295,25.9553591 L108.425497,25.5102762 L107.910962,25.3228729 L107.805716,25.0300552 L108.10976,24.6435359 L108.122623,24.1398895 L107.840798,23.519116 L108.098066,22.9100552 L108.273475,22.7812155 L108.894426,22.3127072 L109.536426,22.2541436 L110.050962,22.7460773 L110.775989,22.8632044 L111.724372,22.6172376 L112.588557,22.7812155 L113.384918,23.3668508 L114.132164,24.4327072 L114.822109,25.9787845 L116.073366,26.9158011 L117.885934,27.2554696 L119.207355,27.8645304 L120.037628,28.7312707 L120.727574,29.0123757 L121.534459,28.5438674 L122.38812,28.2979006 L123.241781,28.5907182 L124.388962,29.3286188 L126.083421,29.1646409 L128.316973,28.1104972 L129.638393,28.1573481 L130.035989,29.3169061 L130.983202,30.5350276 L132.491727,31.8 L132.608667,31.7648619 Z" id="Fill-32"></path>
                <path d="M208.724842,38.6167956 L209.157519,37.9854807 L210.818066,37.7629392 L211.847137,37.6212155 L209.414787,43.0910497 L209.521202,44.0995138 L209.030055,44.4274696 L208.292164,44.6851492 L207.543749,45.281326 L207.052601,45.9372376 L206.597705,47.7187403 L205.707792,49.7099006 L205.158175,48.8782983 L205.017847,48.1626519 L205.263421,46.3015028 L206.222328,43.2433149 L207.275956,41.3341436 L208.081672,40.4334365 L208.724842,38.6167956 Z M213.203639,37.4455249 L213.495989,37.411558 L212.314896,39.5303867 L211.813224,39.7540994 L213.203639,37.4455249 Z M185.968339,19.0331492 L186.599814,19.560221 L188.08612,20.1821657 L188.693038,20.8134807 L188.425246,21.4588508 L188.388995,21.9261878 L188.67082,22.3478453 L190.645934,23.1923315 L191.862109,24.3870276 L192.611694,24.7501215 L192.83271,24.8543646 L193.370634,25.1471823 L193.616208,25.5114475 L193.452492,27.1160884 L192.937956,27.9113812 L192.13224,28.520442 L191.078612,29.598011 L190.821344,30.5935912 L190.493913,32.4559116 L190.938284,33.0883978 L191.395519,33.253547 L192.739158,32.8318895 L193.429104,33.0192928 L194.97271,35.2564199 L197.849432,36.1348729 L198.90306,36.6853702 L199.755552,37.8449282 L201.04306,38.5113812 L202.03588,39.4835359 L202.060437,40.1160221 L201.708448,40.8656354 L201.56812,41.8729282 L201.148306,42.5054144 L200.12976,42.5768619 L199.509978,42.4117127 L196.200579,38.8510497 L195.802984,38.5230939 L194.575115,36.6607735 L193.136754,35.6546519 L192.692383,35.6769061 L194.738831,37.5275138 L195.569104,38.8159116 L197.043716,40.6196685 L198.095005,41.3809945 L198.866809,42.5768619 L199.591836,43.1379006 L201.556426,43.9343646 L200.878175,44.5082873 L201.966885,45.000221 L202.118907,45.8903867 L202.013661,46.9093923 L200.505137,46.5111602 L200.458361,47.2607735 L200.598689,47.7070276 L199.930962,48.0689503 L199.007137,47.5770166 L196.598175,44.8713812 L196.621563,45.2344751 L196.820361,45.6573039 L198.224809,47.401326 L199.476066,48.4449282 L200.539049,48.9122652 L201.357628,49.7907182 L201.649978,50.3177901 L201.837082,51.1142541 L201.230164,51.6542099 L200.539049,51.9587403 L199.860798,51.4199558 L199.36965,50.8448619 L198.318361,49.8727072 L198.001454,48.7845967 L197.206262,48.841989 L193.861781,47.4610608 L191.172164,47.2959116 L191.429432,47.5770166 L191.768557,47.7655912 L193.908557,48.1052597 L194.750525,48.7377459 L196.504623,49.2987845 L197.534863,49.4510497 L197.954678,51.173989 L199.381344,52.3558011 L199.568448,53.2342541 L200.539049,53.3291271 L202.246372,52.4612155 L203.345607,52.7657459 L204.935989,53.0117127 L205.298503,53.7027624 L205.567464,55.0274696 L206.128776,56.5138122 L206.49129,57.9673591 L206.14047,57.9673591 L205.287978,57.9556464 L202.550415,57.9310497 L198.563934,57.8959116 L194.575115,57.8619448 L190.587464,57.8256354 L186.599814,57.7904972 L182.612164,57.7553591 L178.625683,57.7213923 L174.638033,57.6850829 L170.649213,57.6499448 L166.661563,57.6148066 L162.673913,57.5796685 L158.686262,57.5445304 L154.699781,57.5093923 L150.712131,57.4742541 L146.723311,57.439116 L142.735661,57.4039779 L142.548557,57.1919779 L140.981563,57.1345856 L139.836721,57.0877348 L139.321016,57.3688398 L137.01847,57.3571271 L135.181344,57.3454144 L132.070743,57.3325304 L128.28306,57.3102762 L122.938907,57.2856796 L120.448087,57.2751381 L121.559016,56.6192265 L123.206699,56.2327072 L126.14306,55.12 L127.312459,53.9838674 L128.961311,53.1522652 L129.651257,52.1566851 L130.749322,51.2079558 L131.159781,50.1303867 L131.311803,49.9652376 L133.124372,48.9930829 L135.029322,47.7761326 L139.193552,44.4145856 L139.27424,44.8596685 L139.122219,45.3398895 L139.473038,45.9020994 L139.765388,46.7805525 L140.175847,47.319337 L140.689213,47.7527072 L141.544044,48.1392265 L142.548557,48.8185635 L143.344918,49.0059669 L143.61271,48.9825414 L144.48976,48.3266298 L145.214787,47.9752486 L145.976066,47.2607735 L147.332568,48.2329282 L147.870492,48.2329282 L149.203607,47.8112707 L150.454863,47.6941436 L150.769432,47.5653039 L151.238361,47.1670718 L151.250055,46.3577238 L151.354131,46.1480663 L151.564623,46.0543646 L151.811366,46.0309392 L152.372678,46.3237569 L152.921126,46.3354696 L155.259923,45.398453 L155.436503,45.4687293 L155.728852,45.9020994 L156.757923,45.3516022 L157.366011,44.8362431 L157.634973,44.0632044 L158.136645,43.3018785 L158.031399,42.9622099 L157.703967,42.5171271 L158.136645,41.4864088 L158.76812,40.4674033 L161.153694,37.3740773 L161.914973,35.5012155 L162.907792,34.2948066 L163.236393,33.3343646 L163.983639,32.3856354 L164.499344,30.4179006 L164.813913,30.0196685 L165.271148,29.9493923 L165.737738,30.1953591 L166.076863,30.558453 L166.300219,31.1440884 L167.504699,31.6594475 L168.509213,31.7168398 L169.212022,31.3432044 L169.621311,30.6521547 L170.16976,29.3520442 L170.695989,28.5790055 L171.036284,27.6068508 L171.385934,26.9392265 L171.923858,26.5175691 L173.280361,26.5409945 L173.982,25.9436464 L174.521093,25.2643094 L174.847355,25.041768 L175.233257,25.0769061 L176.461126,23.9876243 L178.074896,21.7036464 L178.426885,20.2629834 L178.846699,19.2205525 L179.011585,18.1546961 L179.326153,17.5690608 L180.75282,18.7286188 L181.571399,19.3962431 L183.443607,20.918895 L184.682,21.9261878 L185.173148,20.7666298 L185.968339,19.0331492 Z" id="Fill-90"></path>
                <polygon id="Fill-99" points="166.732896 13.2822099 166.697814 15.1093923 166.673257 16.9365746 166.639344 18.7520442 166.614787 20.5675138 168.019235 19.5133702 168.754787 19.1385635 171.152055 16.8077348 171.468962 16.7960221 172.299235 17.1239779 174.017082 15.4607735 174.227574 14.8634254 174.426372 14.6643094 174.649727 14.6877348 174.778361 14.84 174.696503 15.1913812 174.825137 15.3565304 175.537301 15.7535912 176.519596 15.9761326 176.659923 15.999558 177.536973 15.9890166 177.922874 15.6598895 178.121672 15.0156906 178.519268 14.640884 179.40918 14.4780773 180.998393 13.8209945 181.910525 13.9264088 182.694022 14.5940331 183.477519 14.9102762 184.27388 14.8868508 184.589617 15.039116 184.401344 15.3787845 184.613005 15.7770166 185.209399 16.2220994 185.418721 16.6320442 185.221093 17.0068508 185.291257 17.2879558 185.606995 17.4753591 185.805792 17.8853039 185.863093 18.5295028 186.003421 18.6466298 185.291257 20.3449724 184.79894 21.5045304 183.560546 20.4972376 181.689508 18.9745856 180.870929 18.3069613 179.444262 17.1474033 179.128525 17.7330387 178.964809 18.798895 178.543825 19.841326 178.204699 21.281989 176.590929 23.5659669 175.36306 24.6552486 174.988852 24.6318232 174.660251 24.8543646 174.122328 25.5337017 173.432383 26.119337 172.07588 26.0959116 171.527432 26.5175691 171.176612 27.1969061 170.837486 28.1690608 170.311257 28.9303867 169.749945 30.2304972 169.339486 30.9227182 168.639016 31.2963536 167.621639 31.2377901 166.427683 30.7107182 166.206667 30.1250829 165.867541 29.761989 165.398612 29.5160221 164.943716 29.5745856 164.627978 29.9728177 164.113443 31.9417238 163.365027 32.8892818 163.037596 33.8614365 162.042437 35.0690166 161.283497 36.9418785 158.909617 40.0340331 158.266448 41.0530387 157.83377 42.0720442 158.161202 42.5171271 158.266448 42.8567956 157.763607 43.6181215 157.494645 44.3923315 156.886557 44.9065193 155.86918 45.4570166 155.565137 45.0248177 155.389727 44.9533702 153.050929 45.9032707 152.501311 45.8903867 151.94 45.5858564 151.694426 45.610453 151.483934 45.7146961 151.378689 45.9138122 151.365825 46.7348729 150.899235 47.1319337 150.582328 47.2619448 149.33224 47.3779006 148.00965 47.799558 147.471727 47.799558 146.116393 46.8285746 145.356284 47.5418785 144.619563 47.881547 143.754208 48.5386298 143.485246 48.560884 142.688885 48.3734807 141.684372 47.6941436 140.841235 47.3076243 140.327869 46.8859669 139.91741 46.3354696 139.62506 45.4570166 139.27541 44.9065193 139.426262 44.4262983 139.345574 43.9812155 137.824186 43.5478453 135.87129 41.9314917 134.621202 39.9754696 134.223607 39.0630497 133.767541 38.441105 133.650601 37.8203315 132.481202 36.1934365 132.164295 35.4895028 132.142077 35.0444199 132.515115 34.201105 132.598142 33.7923315 132.469508 31.7062983 132.211071 31.319779 133.485716 31.7882873 134.701891 31.518895 135.463169 30.8758674 135.755519 29.8674033 136.188197 29.2700552 136.72612 29.1060773 136.983388 28.6609945 136.888667 27.5717127 136.72612 26.8220994 137.158798 25.7445304 138.163311 24.081326 138.946809 23.401989 139.50929 23.7065193 139.860109 24.2218785 139.977049 24.959779 140.093989 25.0534807 140.256536 25.041768 140.678689 24.4807293 141.06459 24.2570166 141.216612 24.3155801 141.379158 24.3038674 141.403716 23.9407735 141.111366 22.9334807 141.133585 22.3361326 141.484404 22.160442 141.858612 21.481105 142.256208 20.3098343 142.735661 19.7007735 143.298142 19.6773481 143.894536 19.1971271 144.54823 18.2601105 145.132929 17.9918895 145.648634 18.3889503 146.302328 18.4123757 147.074131 18.0727072 148.431803 17.0888398 150.373005 15.4490608 151.355301 14.1255249 151.378689 13.1065193 152.127104 10.6234254 153.623934 6.66453039 154.347792 4.08773481 154.325574 2.91646409 154.115082 1.9560221 153.717486 1.21812155 153.96306 0.632486188 155.259923 1.42108547e-14 155.249399 1.66320442 155.249399 3.32640884 155.249399 5.00132597 155.249399 6.66453039 155.249399 8.32773481 155.259923 9.97922652 155.259923 11.6424309 155.259923 13.2939227 156.68659 13.2939227 158.12612 13.2939227 159.563311 13.2939227 160.991148 13.2939227 162.428339 13.2939227 163.855005 13.2939227 165.294536 13.2939227"></polygon>
            </g>
            <text id="AR" font-family="OpenSans-Semibold, Open Sans" font-size="12" font-weight="500" line-spacing="20" fill="#4C4C4C">
                <tspan x="14" y="83">AR</tspan>
            </text>
            <text id="LA" font-family="OpenSans-Semibold, Open Sans" font-size="12" font-weight="500" line-spacing="20" fill="#4C4C4C">
                <tspan x="14" y="122">LA</tspan>
            </text>
            <text id="MS" font-family="OpenSans-Semibold, Open Sans" font-size="12" font-weight="500" line-spacing="20" fill="#4C4C4C">
                <tspan x="44" y="110">MS</tspan>
            </text>
            <text id="AL" font-family="OpenSans-Semibold, Open Sans" font-size="12" font-weight="500" line-spacing="20" fill="#4C4C4C">
                <tspan x="77" y="110">AL</tspan>
            </text>
            <text id="GA" font-family="OpenSans-Semibold, Open Sans" font-size="12" font-weight="500" line-spacing="20" fill="#4C4C4C">
                <tspan x="114" y="112">GA</tspan>
            </text>
            <text id="SC" font-family="OpenSans-Semibold, Open Sans" font-size="12" font-weight="500" line-spacing="20" fill="#4C4C4C">
                <tspan x="145" y="97">SC</tspan>
            </text>
            <text id="NC" font-family="OpenSans-Semibold, Open Sans" font-size="12" font-weight="500" line-spacing="20" fill="#4C4C4C">
                <tspan x="163" y="73">NC</tspan>
            </text>
            <text id="VA" font-family="OpenSans-Semibold, Open Sans" font-size="12" font-weight="500" line-spacing="20" fill="#4C4C4C">
                <tspan x="167" y="48">VA</tspan>
            </text>
            <text id="WV" font-family="OpenSans-Semibold, Open Sans" font-size="12" font-weight="500" line-spacing="20" fill="#4C4C4C">
                <tspan x="140" y="35">WV</tspan>
            </text>
            <text id="KY" font-family="OpenSans-Semibold, Open Sans" font-size="12" font-weight="500" line-spacing="20" fill="#4C4C4C">
                <tspan x="102" y="47">KY</tspan>
            </text>
            <text id="TN" font-family="OpenSans-Semibold, Open Sans" font-size="12" font-weight="500" line-spacing="20" fill="#4C4C4C">
                <tspan x="82" y="71">TN</tspan>
            </text>
            <text id="FL" font-family="OpenSans-Semibold, Open Sans" font-size="12" font-weight="500" line-spacing="20" fill="#4C4C4C">
                <tspan x="135" y="165">FL</tspan>
            </text>
            <g id="Icon/Status-Indicator" transform="translate(156.000000, 188.000000)">
                <g id="Color/Yellow">
                    <circle id="Miami" cy="0" cx="0" r="4"></circle>
                </g>
            </g>
        </g>
    </g>
</svg>