{
  "results": [
    {
      "id": 1,
      "type": "address",
      "steps": [
        {
          "description": "Review detailed manufacturer's information HERE"
        },
        {
          "description": "Retrieve the asset from inventory"
        },
        {
          "description": "Stop the asset belt and place the sorter in safe mode"
        },
        {
          "description": "Don PPE"
        },
        {
          "description": "Inspect the new asset and remove any instructions"
        },
        {
          "description": "Prepare for installation and ensure that the new drive has appropriate mounting clearance"
        },
        {
          "description": "Lift and Mount the Drive"
        },
        {
          "description": "Wire power"
        },
        {
          "description": "Wire I/O"
        },
        {
          "description": "Run a pre-startup check"
        },
        {
          "description": "Start the VFD"
        }
      ]
    },
    {
      "id": 2,
      "type": "troubleshoot",
      "steps": [
        {
          "description": "Switch the system into manual mode to locally control belt movement"
        },
        {
          "description": "Jog belt slowly from the GDU",
          "children": [
            {
              "description": "I there debris or a foreign object caught between the pulleys?"
            },
            {
              "description": "Use a marker (sharpie) on the slider bed to document travel of the belt while running at design speed."
            },
            {
              "description": "Is the belt walking and tracking into the side guards?"
            },
            {
              "description": "Is the belt damaged?"
            },
            {
              "description": "Is there a separation of the top surface from the carcass?"
            },
            {
              "description": "Is the lacing and/or vulcanization damaged?"
            }
          ]
        },
        {
          "description": "Tension checks:",
          "children": [
            {
              "description": "Check for recent overload alarms on the GDU"
            },
            {
              "description": "Compare current draws on the VFD to baseline data retrieved at commissioning"
            },
            {
              "description": "Check (measure) take up and compare to baseline data retrieved at commissioning to see if belt adjustment has previously taken place"
            },
            {
              "description": "Use Lockout/Tagout procedures then check tension of the belt by sliding your hand between the carcass and slider bed"
            }
          ]
        },
        {
          "description": "Loosen belt tension until squeal subsides. Note: If the squeal continues check the bearings mounted on the pulleys. Stethoscope can be used on each bearing to determine noise origin"
        },
        {
          "description": "Before restarting the Asset/Component, make sure all personnel are clear of all moving parts"
        },
        {
          "description": "Use temperature gun to detemine if the belt is \"hot\" when riding over the drive pully"
        },
        {
          "description": "Replace belt if necessary"
        }
      ]
    },
    {
      "id": 2,
      "type": "troubleshoot",
      "steps": [
        {
          "description": "Check if the alarm is present on the HMI and/or local GDU. The first E-stop alarm is likely the problem origin"
        },
        {
          "description": "Locate and examine the device in question. Is the \"red\" indicator light illuminated? If so, the alarm is still active"
        },
        {
          "description": "This is a safety device. Please find out if anyone is hurt, why the E-stop was energized, and if there is any present danger related to the condition"
        },
        {
          "description": "Reset the pull cord by temporarily loosening the tension on the pull cord at the device level and reset via switch. This should unilluminate the \"red\" indicator light"
        },
        {
          "description": "Check the HMI and/ord local GDU to acknowledge/reset the alarm condition in the software"
        },
        {
          "description": "If the problem still exists remove the cover from the device and check to see if voltage (meter) is present across the auxillary contact"
        },
        {
          "description": "If the contact is burnt and/or the device is damaged, replace"
        },
        {
          "description": "Restart the system"
        }
      ]
    },
    {
      "id": 3,
      "type": "Motor",
      "steps": [
        {
          "description": "Add lubrication fluid, if needed"
        },
        { "description": "Replace/tighten motor mounts" },
        {
          "description": "Add additional support under motor"
        },
        {
          "description": "Replace motor"
        }
      ]
    },
    {
      "id": 4,
      "type": "Gearbox",
      "steps": [
        {
          "description": "Replace gasket on gearbox top"
        },
        {
          "description": "Replace Gearbox"
        }
      ]
    }
  ]
}
