<?xml version="1.0" encoding="UTF-8"?>
<svg width="24px" height="24px" viewBox="0 0 24 24" version="1.1" xmlns="http://www.w3.org/2000/svg" xmlns:xlink="http://www.w3.org/1999/xlink">
    <!-- Generator: sketchtool 60 (101010) - https://sketch.com -->
    <title>8F7CF6F6-19E8-452A-8D5F-60F3683E1BB1</title>
    <desc>Created with sketchtool.</desc>
    <g id="Asset-Artboard-Page" stroke="none" stroke-width="1" fill="none" fill-rule="evenodd">
        <g id="icon/star/unselected-star-copy-icon/level/bearing">
            <rect id="Rectangle" x="0" y="0" width="24" height="24"></rect>
            <path d="M12,4 C16.418278,4 20,7.581722 20,12 C20,16.418278 16.418278,20 12,20 C7.581722,20 4,16.418278 4,12 C4,7.581722 7.581722,4 12,4 Z M12,15.5555556 C11.0181604,15.5555556 10.2222222,16.3514938 10.2222222,17.3333333 C10.2222222,18.3151729 11.0181604,19.1111111 12,19.1111111 C12.9818396,19.1111111 13.7777778,18.3151729 13.7777778,17.3333333 C13.7777778,16.3514938 12.9818396,15.5555556 12,15.5555556 Z M6.97168511,14.5141574 C6.2774197,15.2084229 6.2774197,16.3340495 6.97168511,17.0283149 C7.66595052,17.7225803 8.79157715,17.7225803 9.48584256,17.0283149 C10.180108,16.3340495 10.180108,15.2084229 9.48584256,14.5141574 C8.79157715,13.819892 7.66595052,13.819892 6.97168511,14.5141574 Z M14.5141574,14.5141574 C13.819892,15.2084229 13.819892,16.3340495 14.5141574,17.0283149 C15.2084229,17.7225803 16.3340495,17.7225803 17.0283149,17.0283149 C17.7225803,16.3340495 17.7225803,15.2084229 17.0283149,14.5141574 C16.3340495,13.819892 15.2084229,13.819892 14.5141574,14.5141574 Z M10.1143819,10.1143819 C9.07298381,11.15578 9.07298381,12.84422 10.1143819,13.8856181 C11.15578,14.9270162 12.84422,14.9270162 13.8856181,13.8856181 C14.9270162,12.84422 14.9270162,11.15578 13.8856181,10.1143819 C12.84422,9.07298381 11.15578,9.07298381 10.1143819,10.1143819 Z M17.3333333,10.2222222 C16.3514938,10.2222222 15.5555556,11.0181604 15.5555556,12 C15.5555556,12.9818396 16.3514938,13.7777778 17.3333333,13.7777778 C18.3151729,13.7777778 19.1111111,12.9818396 19.1111111,12 C19.1111111,11.0181604 18.3151729,10.2222222 17.3333333,10.2222222 Z M6.66666667,10.2222222 C5.68482711,10.2222222 4.88888889,11.0181604 4.88888889,12 C4.88888889,12.9818396 5.68482711,13.7777778 6.66666667,13.7777778 C7.64850622,13.7777778 8.44444444,12.9818396 8.44444444,12 C8.44444444,11.0181604 7.64850622,10.2222222 6.66666667,10.2222222 Z M14.5141574,6.97168511 C13.819892,7.66595052 13.819892,8.79157715 14.5141574,9.48584256 C15.2084229,10.180108 16.3340495,10.180108 17.0283149,9.48584256 C17.7225803,8.79157715 17.7225803,7.66595052 17.0283149,6.97168511 C16.3340495,6.2774197 15.2084229,6.2774197 14.5141574,6.97168511 Z M6.97168511,6.97168511 C6.2774197,7.66595052 6.2774197,8.79157715 6.97168511,9.48584256 C7.66595052,10.180108 8.79157715,10.180108 9.48584256,9.48584256 C10.180108,8.79157715 10.180108,7.66595052 9.48584256,6.97168511 C8.79157715,6.2774197 7.66595052,6.2774197 6.97168511,6.97168511 Z M12,4.88888889 C11.0181604,4.88888889 10.2222222,5.68482711 10.2222222,6.66666667 C10.2222222,7.64850622 11.0181604,8.44444444 12,8.44444444 C12.9818396,8.44444444 13.7777778,7.64850622 13.7777778,6.66666667 C13.7777778,5.68482711 12.9818396,4.88888889 12,4.88888889 Z" id="bearing" fill="#00E893"></path>
        </g>
    </g>
</svg>