<?xml version="1.0" encoding="UTF-8"?>
<svg width="24px" height="24px" viewBox="0 0 24 24" version="1.1" xmlns="http://www.w3.org/2000/svg" xmlns:xlink="http://www.w3.org/1999/xlink">
    <!-- Generator: sketchtool 61.2 (101010) - https://sketch.com -->
    <title>B5ABD737-BC60-4B6E-8BE7-29407CE57BE7</title>
    <desc>Created with sketchtool.</desc>
    <g id="Asset-Artboard-Page" stroke="none" stroke-width="1" fill="none" fill-rule="evenodd">
        <g id="icon/chevron/chevron-down-icon/calendar">
            <rect id="Rectangle" x="0" y="0" width="24" height="24"></rect>
            <path d="M18,5 C19.1,5 20,5.9 20,7 L20,19 C20,20.1 19.1,21 18,21 L6,21 C4.89,21 4,20.1 4,19 L4.01,7 C4.01,5.9 4.89,5 6,5 L7,5 L7,3 L10,3 L10,5 L14,5 L14,3 L17,3 L17,5 L18,5 Z M19,19 L19,9 C19,8.44771525 18.5522847,8 18,8 L6,8 C5.44771525,8 5,8.44771525 5,9 L5,19 C5,19.5522847 5.44771525,20 6,20 L18,20 C18.5522847,20 19,19.5522847 19,19 Z M7,16 L9,16 L9,18 L7,18 L7,16 Z M11,16 L13,16 L13,18 L11,18 L11,16 Z M7,13 L9,13 L9,15 L7,15 L7,13 Z M11,13 L13,13 L13,15 L11,15 L11,13 Z M15,13 L17,13 L17,15 L15,15 L15,13 Z M11,10 L13,10 L13,12 L11,12 L11,10 Z M7,10 L9,10 L9,12 L7,12 L7,10 Z M15,10 L17,10 L17,12 L15,12 L15,10 Z" id="calendar" fill="#4E8CEC"></path>
        </g>
    </g>
</svg>