<?xml version="1.0" encoding="UTF-8"?>
<svg width="25px" height="24px" viewBox="0 0 25 24" version="1.1" xmlns="http://www.w3.org/2000/svg" xmlns:xlink="http://www.w3.org/1999/xlink">
    <!-- Generator: sketchtool 61 (101010) - https://sketch.com -->
    <title>F4EDFD37-C5E3-4458-AFC7-0658AA629E3E</title>
    <desc>Created with sketchtool.</desc>
    <g id="Asset-Artboard-Page" stroke="none" stroke-width="1" fill="none" fill-rule="evenodd">
        <g id="icon/star/unselected-star-copy-icon/level/belt" transform="translate(0.190045, 0.000000)">
            <rect id="Rectangle" x="0" y="0" width="24" height="24"></rect>
            <path d="M18,8 C20.209139,8 22,9.790861 22,12 C22,14.209139 20.209139,16 18,16 L6,16 C3.790861,16 2,14.209139 2,12 C2,9.790861 3.790861,8 6,8 L18,8 Z M18,10 L6,10 C4.8954305,10 4,10.8954305 4,12 C4,13.0543618 4.81587779,13.9181651 5.85073766,13.9945143 L6,14 L18,14 C19.1045695,14 20,13.1045695 20,12 C20,10.9456382 19.1841222,10.0818349 18.1492623,10.0054857 L18,10 Z" id="Asset-Belt" fill="#00E893"></path>
        </g>
    </g>
</svg>