<?xml version="1.0" encoding="UTF-8"?>
<svg width="25px" height="24px" viewBox="0 0 25 24" version="1.1" xmlns="http://www.w3.org/2000/svg" xmlns:xlink="http://www.w3.org/1999/xlink">
    <!-- Generator: sketchtool 61 (101010) - https://sketch.com -->
    <title>96A893FA-8A29-4F29-8257-9B5DA6BFC890</title>
    <desc>Created with sketchtool.</desc>
    <g id="Asset-Artboard-Page" stroke="none" stroke-width="1" fill="none" fill-rule="evenodd">
        <g id="icon/star/unselected-star-copy-icon/level/globe" transform="translate(0.855204, 0.000000)">
            <rect id="Rectangle" x="0" y="0" width="24" height="24"></rect>
            <path d="M12,4 C7.58169231,4 4,7.58173077 4,12 C4,16.4182692 7.58169231,20 12,20 C16.4182692,20 20,16.4182692 20,12 C20,7.58173077 16.4182692,4 12,4 Z M11.1711923,18.8076538 C9.65334615,18.6258846 8.24896154,17.9464231 7.15123077,16.8487308 C5.85607692,15.5535769 5.14284615,13.8316154 5.14284615,12 C5.14284615,10.3511538 5.72115385,8.79138462 6.78134615,7.55157692 C6.80865385,7.87915385 6.87607692,8.23034615 6.85880769,8.48138462 C6.79573077,9.39657692 6.70542308,9.96934615 7.24111538,10.7414615 C7.44980769,11.0421923 7.50107692,11.4733077 7.60265385,11.8213846 C7.702,12.1619231 8.09888462,12.3405385 8.37261538,12.5503462 C8.92488462,12.9737692 9.45323077,13.4659231 10.0388462,13.8385769 C10.4253462,14.0845385 10.6667692,14.2068846 10.5535769,14.6785385 C10.4625385,15.0578462 10.4371154,15.2915 10.2408846,15.6294231 C10.181,15.7325385 10.4669231,16.3955 10.5620769,16.4906538 C10.8504615,16.779 11.1366154,17.0435385 11.4509615,17.3031538 C11.9383077,17.7058077 11.4036154,18.229 11.1711923,18.8076538 Z M16.8487308,16.8487308 C15.8628462,17.8346154 14.6295385,18.4828077 13.2888846,18.7364615 C13.4788846,18.2666154 13.8171923,17.8491538 14.131,17.6071538 C14.4039615,17.3965385 14.7458462,16.9914231 14.8884231,16.6705385 C15.0308846,16.3500769 15.2196154,16.0722692 15.4106154,15.7775769 C15.6823462,15.3583846 14.7406538,14.7261923 14.4355,14.5936923 C13.7488077,14.2955769 13.2318846,13.8933077 12.6216154,13.4638846 C12.1868077,13.1579615 11.3040385,13.6236538 10.8131538,13.4093846 C10.1408077,13.1158077 9.58688462,12.6056923 9.00246154,12.1655769 C8.39938462,11.7113846 8.42853846,11.1818846 8.42853846,10.5118462 C8.90092308,10.5292692 9.57292308,10.3811154 9.88653846,10.761 C9.9855,10.8808846 10.3257692,11.4164615 10.5535385,11.2261538 C10.7396154,11.0706538 10.4156538,10.4473462 10.3530769,10.3008077 C10.1605769,9.85023077 10.7916923,9.6745 11.1147308,9.36896154 C11.5362692,8.97034615 12.4405,8.34519231 12.3690385,8.05946154 C12.2975769,7.77373077 11.4642692,6.96419231 10.9748462,7.0905 C10.9015,7.10942308 10.2557308,7.78653846 10.1309615,7.89276923 C10.1342692,7.67176923 10.1375769,7.45080769 10.1409615,7.22980769 C10.1430769,7.09026923 9.88065385,6.94703846 9.89284615,6.85703846 C9.92361538,6.62957692 10.5567692,6.21676923 10.7142692,6.03561538 C10.6039231,5.96665385 10.2273846,5.64323077 10.1134231,5.69069231 C9.8375,5.80569231 9.52588462,5.88492308 9.24996154,5.99988462 C9.24996154,5.90419231 9.23834615,5.81430769 9.2245,5.72553846 C9.78015547,5.47973036 10.3662832,5.3095968 10.9671923,5.21969231 L11.5088846,5.43738462 L11.8913462,5.89126923 L12.2730385,6.28484615 L12.6066923,6.39234615 L13.1366538,5.89253846 L13,5.53573077 L13,5.215 C14.0480769,5.36723077 15.0378462,5.75823077 15.9046923,6.36115385 C15.7496154,6.37503846 15.5791923,6.39784615 15.3869231,6.42230769 C15.3075,6.37538462 15.2056154,6.35407692 15.1190385,6.32142308 C15.3702308,6.8615 15.6322308,7.39411538 15.8984231,7.92703846 C16.1827692,8.49630769 16.8135385,9.10692308 16.9243077,9.70784615 C17.0548462,10.4161538 16.9642692,11.0595385 17.0356923,11.8928846 C17.1044615,12.6953846 17.9404615,13.6071923 17.9404615,13.6071923 C17.9404615,13.6071923 18.3265,13.7386923 18.6475385,13.6928846 C18.3482692,14.8768462 17.7347308,15.9626538 16.8487308,16.8487308 L16.8487308,16.8487308 Z" id="Globe" fill="#00E893"></path>
        </g>
    </g>
</svg>