<?xml version="1.0" encoding="UTF-8"?>
<svg width="23px" height="24px" viewBox="0 0 23 24" version="1.1" xmlns="http://www.w3.org/2000/svg" xmlns:xlink="http://www.w3.org/1999/xlink">
    <!-- Generator: sketchtool 61 (101010) - https://sketch.com -->
    <title>F5A7E042-E80B-464E-8F7D-600D6A8A9C32</title>
    <desc>Created with sketchtool.</desc>
    <g id="Asset-Artboard-Page" stroke="none" stroke-width="1" fill="none" fill-rule="evenodd">
        <g id="icon/star/unselected-star-copy-icon/level/facility" transform="translate(0.855204, 0.000000)">
            <rect id="Rectangle" x="0" y="0" width="22" height="24"></rect>
            <path d="M16.5,4 C17.006261,4 17.4166667,4.44771525 17.4166667,5 C17.4166667,5.51283584 17.0627965,5.93550716 16.6069027,5.99327227 L16.5,6 L16.5,20 L5.5,20 L5.5,6 C4.99373898,6 4.58333333,5.55228475 4.58333333,5 C4.58333333,4.44771525 4.99373898,4 5.5,4 L16.5,4 Z M15.5833333,6 L6.41666667,6 L6.41666667,19 L11,19 L11,14 C11,13.4477153 11.4477153,13 12,13 L13.6666667,13 C14.2189514,13 14.6666667,13.4477153 14.6666667,14 L14.6666667,19 L15.5833333,19 L15.5833333,6 Z M9.08333333,16 C9.63561808,16 10.0833333,16.4477153 10.0833333,17 C10.0833333,17.5522847 9.63561808,18 9.08333333,18 L8.33333333,18 C7.78104858,18 7.33333333,17.5522847 7.33333333,17 C7.33333333,16.4477153 7.78104858,16 8.33333333,16 L9.08333333,16 Z M9.08333333,13 C9.63561808,13 10.0833333,13.4477153 10.0833333,14 C10.0833333,14.5522847 9.63561808,15 9.08333333,15 L8.33333333,15 C7.78104858,15 7.33333333,14.5522847 7.33333333,14 C7.33333333,13.4477153 7.78104858,13 8.33333333,13 L9.08333333,13 Z M9.08333333,10 C9.63561808,10 10.0833333,10.4477153 10.0833333,11 C10.0833333,11.5522847 9.63561808,12 9.08333333,12 L8.33333333,12 C7.78104858,12 7.33333333,11.5522847 7.33333333,11 C7.33333333,10.4477153 7.78104858,10 8.33333333,10 L9.08333333,10 Z M13.6666667,10 C14.2189514,10 14.6666667,10.4477153 14.6666667,11 C14.6666667,11.5522847 14.2189514,12 13.6666667,12 L12.9166667,12 C12.3643819,12 11.9166667,11.5522847 11.9166667,11 C11.9166667,10.4477153 12.3643819,10 12.9166667,10 L13.6666667,10 Z M9.08333333,7 C9.63561808,7 10.0833333,7.44771525 10.0833333,8 C10.0833333,8.55228475 9.63561808,9 9.08333333,9 L8.33333333,9 C7.78104858,9 7.33333333,8.55228475 7.33333333,8 C7.33333333,7.44771525 7.78104858,7 8.33333333,7 L9.08333333,7 Z M13.6666667,7 C14.2189514,7 14.6666667,7.44771525 14.6666667,8 C14.6666667,8.55228475 14.2189514,9 13.6666667,9 L12.9166667,9 C12.3643819,9 11.9166667,8.55228475 11.9166667,8 C11.9166667,7.44771525 12.3643819,7 12.9166667,7 L13.6666667,7 Z" id="facility" fill="#FF5252"></path>
        </g>
    </g>
</svg>