<?xml version="1.0" encoding="UTF-8"?>
<svg width="24px" height="24px" viewBox="0 0 24 24" version="1.1" xmlns="http://www.w3.org/2000/svg" xmlns:xlink="http://www.w3.org/1999/xlink">
    <title>icon/component/VDF@1x</title>
    <g id="icon/component/VDF" stroke="none" stroke-width="1" fill="none" fill-rule="evenodd">
        <rect id="Rectangle" x="0" y="0" width="24" height="24"></rect>
        <path d="M16,2 C17.1045695,2 18,2.8954305 18,4 L18,20 C18,21.1045695 17.1045695,22 16,22 L8,22 C6.8954305,22 6,21.1045695 6,20 L6,4 C6,2.8954305 6.8954305,2 8,2 L16,2 Z M16,3 L8,3 C7.48716416,3 7.06449284,3.38604019 7.00672773,3.88337887 L7,4 L7,20 C7,20.5128358 7.38604019,20.9355072 7.88337887,20.9932723 L8,21 L16,21 C16.5128358,21 16.9355072,20.6139598 16.9932723,20.1166211 L17,20 L17,4 C17,3.44771525 16.5522847,3 16,3 Z M14,18 L12,20 L10,18 L14,18 Z M10,13 L10,17 L8,15 L10,13 Z M14,13 L16,15 L14,17 L14,13 Z M12,14 C12.5522847,14 13,14.4477153 13,15 C13,15.5522847 12.5522847,16 12,16 C11.4477153,16 11,15.5522847 11,15 C11,14.4477153 11.4477153,14 12,14 Z M12,10 L14,12 L10,12 L12,10 Z M9.5,9 C9.77614237,9 10,9.22385763 10,9.5 C10,9.77614237 9.77614237,10 9.5,10 L8.5,10 C8.22385763,10 8,9.77614237 8,9.5 C8,9.22385763 8.22385763,9 8.5,9 L9.5,9 Z M15.5,9 C15.7761424,9 16,9.22385763 16,9.5 C16,9.77614237 15.7761424,10 15.5,10 L14.5,10 C14.2238576,10 14,9.77614237 14,9.5 C14,9.22385763 14.2238576,9 14.5,9 L15.5,9 Z M15,4 C15.5522847,4 16,4.44771525 16,5 L16,7 C16,7.55228475 15.5522847,8 15,8 L9,8 C8.44771525,8 8,7.55228475 8,7 L8,5 C8,4.44771525 8.44771525,4 9,4 L15,4 Z M15,5 L9,5 L9,7 L15,7 L15,5 Z" id="Combined-Shape" fill="#FF5252"></path>
    </g>
</svg>