<?xml version="1.0" encoding="UTF-8"?>
<svg width="24px" height="24px" viewBox="0 0 24 24" version="1.1" xmlns="http://www.w3.org/2000/svg" xmlns:xlink="http://www.w3.org/1999/xlink">
    <title>icon/component/Chain_v4</title>
    <g id="icon/component/Chain_v4" stroke="none" stroke-width="1" fill="none" fill-rule="evenodd">
        <path d="M3,14 C3,14.5128358 3.38604019,14.9355072 3.88337887,14.9932723 L4,15 L9,15 C9.51283584,15 9.93550716,14.6139598 9.99327227,14.1166211 L10,14 L11,14 C11,15.1045695 10.1045695,16 9,16 L4,16 C2.8954305,16 2,15.1045695 2,14 L3,14 Z M14,14 C14,14.5128358 14.3860402,14.9355072 14.8833789,14.9932723 L15,15 L20,15 C20.5128358,15 20.9355072,14.6139598 20.9932723,14.1166211 L21,14 L22,14 C22,15.1045695 21.1045695,16 20,16 L15,16 C13.8954305,16 13,15.1045695 13,14 L14,14 Z M15.2,10 C15.6418278,10 16,10.4477153 16,11 L16,12 C16,12.5522847 15.6418278,13 15.2,13 L8.8,13 C8.3581722,13 8,12.5522847 8,12 L8,11 C8,10.4477153 8.3581722,10 8.8,10 L15.2,10 Z M23.4142136,10 C23.9664983,10 24.4142136,10.4477153 24.4142136,11 L19,11 L19,12 L24.4142136,12 C24.4142136,12.5522847 23.9664983,13 23.4142136,13 L19,13 C18.4477153,13 18,12.5522847 18,12 L18,11 C18,10.4477153 18.4477153,10 19,10 L23.4142136,10 Z M4.75,10 C5.44035594,10 6,10.4477153 6,11 L6,12 C6,12.5522847 5.44035594,13 4.75,13 L0.835786438,13 C0.1454305,13 -0.414213562,12.5522847 -0.414213562,12 L5,12 L5,11 L-0.414213562,11 C-0.414213562,10.4477153 0.1454305,10 0.835786438,10 L4.75,10 Z M15,11 L9,11 L9,12 L15,12 L15,11 Z M9,7 C10.1045695,7 11,7.8954305 11,9 L10,9 C10,8.48716416 9.61395981,8.06449284 9.11662113,8.00672773 L9,8 L4,8 C3.48716416,8 3.06449284,8.38604019 3.00672773,8.88337887 L3,9 L2,9 C2,7.8954305 2.8954305,7 4,7 L9,7 Z M20,7 C21.1045695,7 22,7.8954305 22,9 L21,9 C21,8.48716416 20.6139598,8.06449284 20.1166211,8.00672773 L20,8 L15,8 C14.4871642,8 14.0644928,8.38604019 14.0067277,8.88337887 L14,9 L13,9 C13,7.8954305 13.8954305,7 15,7 L20,7 Z" id="Combined-Shape" fill="#00E893" transform="translate(12.000000, 11.500000) rotate(-45.000000) translate(-12.000000, -11.500000) "></path>
        <rect id="Rectangle" x="0" y="0" width="24" height="24"></rect>
    </g>
</svg>