<?xml version="1.0" encoding="UTF-8"?>
<svg width="24px" height="24px" viewBox="0 0 24 24" version="1.1" xmlns="http://www.w3.org/2000/svg" xmlns:xlink="http://www.w3.org/1999/xlink">
    <!-- Generator: sketchtool 60 (101010) - https://sketch.com -->
    <title>E8644845-A3E2-481C-AEA3-CED6EF472FED</title>
    <desc>Created with sketchtool.</desc>
    <g id="Asset-Artboard-Page" stroke="none" stroke-width="1" fill="none" fill-rule="evenodd">
        <g id="icon/level/motor-copy-2-icon/level/gear-box">
            <rect id="Rectangle" x="0" y="0" width="24" height="24"></rect>
            <path d="M9.76772556,10.0224911 L9.87266663,10.0571637 L10.8780191,10.47359 C11.2227357,10.6164082 11.4148345,10.996502 11.3247992,11.3577397 C11.2713087,11.5725861 11.214422,11.7921377 11.1557664,12.0108402 C11.4650703,12.2551205 11.7452232,12.5352027 11.9893621,12.8441174 C12.2080292,12.7854618 12.4274747,12.7286104 12.6422504,12.6751553 C12.9675236,12.5941236 13.3078123,12.7416491 13.4767318,13.0232628 L13.5264356,13.1219707 L13.942862,14.1273231 L13.9775479,14.2323253 C14.0572156,14.5509678 13.9207511,14.8959305 13.6335581,15.068501 C13.4440418,15.1824514 13.2486883,15.2974276 13.0524857,15.410635 C13.0983347,15.8014835 13.0982286,16.1976386 13.0522735,16.5892654 C13.2477331,16.7020483 13.4431928,16.8170953 13.6336289,16.9315409 C13.9207582,17.1041114 14.0571876,17.4491028 13.9775651,17.7676995 L13.9429327,17.8726481 L13.5265064,18.8780358 C13.3836881,19.2228231 13.0035589,19.4149572 12.6423212,19.3248512 C12.4273686,19.27129 12.207817,19.214474 11.9892559,19.1558538 C11.7449402,19.4651576 11.4647873,19.7453459 11.1559787,19.989414 C11.2149527,20.2093901 11.2717686,20.4288709 11.3249407,20.6423022 C11.4059725,20.9674161 11.2584183,21.3078322 10.9768504,21.4767529 L10.8781606,21.5264519 L9.87280814,21.9428782 C9.52798546,22.085661 9.12341049,21.9527485 8.9315947,21.6336452 C8.8169722,21.4428553 8.70196055,21.2475018 8.58949607,21.0525021 C8.198506,21.098245 7.80231546,21.0981742 7.41086548,21.0522898 C7.29702129,21.2495537 7.18200964,21.4449426 7.06862535,21.6336098 C6.92863732,21.866251 6.67561877,22 6.41517098,22 C6.35068993,22 6.28575291,21.9917666 6.2219532,21.9748207 L6.12730578,21.9428075 L5.1219179,21.5263458 C4.77720135,21.383563 4.58510253,21.0034338 4.6751378,20.6421961 C4.72859292,20.4275973 4.78544426,20.2080457 4.8441706,19.9890956 C4.53486675,19.7447799 4.2547138,19.4647331 4.01057496,19.1558538 C3.79176627,19.2145801 3.57228541,19.2713961 3.35775738,19.3248158 C3.03242053,19.4058794 2.69215409,19.2582998 2.52326549,18.9767007 L2.47357218,18.8780004 L2.05711044,17.8726481 C1.9143276,17.5278608 2.04731092,17.1232859 2.36634354,16.9315055 C2.55628434,16.8173783 2.75163786,16.7023667 2.94755743,16.5893362 C2.90174381,16.1982754 2.90184994,15.8021911 2.94776969,15.4107057 C2.75202701,15.297746 2.55656735,15.182699 2.36641429,15.0684303 C2.07928494,14.8958598 1.94285551,14.5508684 2.02250382,14.2322717 L2.05714581,14.1273231 L2.47350142,13.1220061 C2.61631964,12.777325 2.99634274,12.5850493 3.35768663,12.6751553 C3.57210853,12.7285751 3.79166014,12.785391 4.01085797,12.8442235 C4.25510295,12.5349197 4.53522052,12.254696 4.84409985,12.010628 C4.78555039,11.7924915 4.72873443,11.5730106 4.6751378,11.3577397 C4.59410606,11.0326258 4.74166024,10.6922098 5.02322817,10.523289 L5.1219179,10.47359 L6.1272704,10.0571637 C6.47202233,9.91434551 6.87659729,10.0472934 7.06848384,10.3663968 C7.18229266,10.5557361 7.29730431,10.751125 7.41058246,10.9475044 C7.80160791,10.9016908 8.19769232,10.901797 8.58921305,10.9477521 C8.70213744,10.7519741 8.81721984,10.5565144 8.93145319,10.3663968 C9.10408741,10.0791401 9.44914251,9.94275526 9.76772556,10.0224911 Z M6.85193818,13.2283152 C5.32372438,13.8611999 4.59533777,15.6190852 5.22839346,17.1469248 C5.53501181,17.8870951 6.11168322,18.4634956 6.85197659,18.7701079 C7.22212328,18.9233565 7.61105192,19 7.99998057,19 C8.38890922,19 8.77783786,18.9233565 9.14806137,18.7701079 C10.6216961,18.1598262 11.3515783,16.5035019 10.8342801,15.0160178 L10.7716061,14.8514599 C10.1386272,13.3236203 8.38042085,12.5954688 6.85193818,13.2283152 Z M18.463262,2.01636386 L18.5605555,2.04763642 L19.3983493,2.39465834 C19.6856131,2.51367351 19.8456954,2.83041835 19.770666,3.13144976 C19.7260906,3.31048843 19.678685,3.49344808 19.6298054,3.67570018 C19.8875586,3.87926712 20.1210194,4.11266891 20.3244684,4.3700978 C20.506691,4.32121815 20.6895623,4.27384204 20.868542,4.22929611 C21.1362565,4.16260333 21.416177,4.28170111 21.5586646,4.51074517 L21.605363,4.60164228 L21.952385,5.43943592 L21.9836665,5.53678208 C22.0448526,5.79954927 21.9310046,6.08171752 21.6946318,6.22375087 C21.5367015,6.31870946 21.3739069,6.414523 21.2104048,6.50886249 C21.2486123,6.83456959 21.2485238,7.16469884 21.2102279,7.49105452 C21.3731109,7.58504024 21.535994,7.68091274 21.6946907,7.77628407 C21.9310112,7.91831742 22.04483,8.20050896 21.9836795,8.46323991 L21.9524439,8.56054005 L21.605422,9.39836317 C21.4864068,9.68568588 21.1696324,9.84579769 20.868601,9.77070935 C20.6894738,9.72607498 20.5065142,9.67872835 20.3243799,9.62987818 C20.1207835,9.88763135 19.8873227,10.1211216 19.6299822,10.3245116 C19.6791272,10.5078251 19.7264739,10.6907258 19.7707839,10.8685852 C19.8374767,11.1361687 19.7183556,11.416191 19.4893478,11.5586821 L19.3984672,11.6053766 L18.5606734,11.9523985 C18.2733212,12.0713842 17.9361754,11.9606237 17.7763289,11.6947043 C17.6808102,11.5357128 17.5849671,11.3729182 17.4912467,11.2104184 C17.1654217,11.2485375 16.8352629,11.2484785 16.5090546,11.2102415 C16.4141844,11.3746281 16.3183414,11.5374522 16.2238545,11.6946748 C16.1071978,11.8885425 15.896349,12 15.6793092,12 C15.6255749,12 15.5714608,11.9931388 15.5182943,11.9790172 L15.4394215,11.9523396 L14.6015982,11.6052882 C14.3143345,11.4863025 14.1542521,11.1695281 14.2292815,10.8684967 C14.2738274,10.6896644 14.3212036,10.5067048 14.3701422,10.3242463 C14.112389,10.1206499 13.8789282,9.88727758 13.6754791,9.62987818 C13.4931386,9.67881679 13.3102378,9.72616342 13.1314645,9.77067987 C12.8636975,9.83739885 12.5837945,9.71825739 12.4413322,9.48922401 L12.3946435,9.39833369 L12.047592,8.56054005 C11.9286063,8.27321734 12.0394258,7.93607158 12.3052863,7.77625459 C12.4635703,7.68114859 12.6263649,7.58530557 12.7896312,7.49111348 C12.7514532,7.1652295 12.7515416,6.83515921 12.7898081,6.50892146 C12.6266892,6.41478833 12.4638061,6.31891583 12.3053452,6.2236919 C12.0690248,6.08165856 11.9552059,5.79946701 12.0163771,5.53673606 L12.0476215,5.43943592 L12.3945845,4.60167177 C12.5135997,4.3144375 12.8302856,4.15420777 13.1314055,4.22929611 C13.3100904,4.27381255 13.4930501,4.32115919 13.675715,4.37018624 C13.8792525,4.11243306 14.1126838,3.87891334 14.3700832,3.6755233 C14.321292,3.49374289 14.2739454,3.3108422 14.2292815,3.13144976 C14.1625887,2.86386628 14.2817098,2.58384396 14.5107177,2.44135283 L14.6015982,2.39465834 L15.439392,2.04763642 C15.7266853,1.92862126 16.0638311,2.0394112 16.2237365,2.30533064 C16.3185772,2.46311344 16.4144203,2.6259375 16.5088187,2.78958704 C16.8346733,2.75140902 17.1647436,2.75149747 17.4910109,2.7897934 C17.5851145,2.62664505 17.6810165,2.46376202 17.776211,2.30533064 C17.9182968,2.06890539 18.2005408,1.95512148 18.463262,2.01636386 Z M16.0432818,4.69026263 C14.7697703,5.2176666 14.1627815,6.68257098 14.6903279,7.95577063 C14.9458432,8.57257921 15.4264027,9.05291298 16.0433138,9.30842327 C16.3517694,9.43613043 16.6758766,9.5 16.9999838,9.5 C17.324091,9.5 17.6481982,9.43613043 17.9567178,9.30842327 C19.1771663,8.80299447 19.7854492,7.43659207 19.3697644,6.20298567 L19.3096717,6.04288327 C18.7821893,4.76968361 17.3170174,4.16289065 16.0432818,4.69026263 Z" id="gear-box" fill="#FFCD0B"></path>
        </g>
    </g>
</svg>