<?xml version="1.0" encoding="UTF-8"?>
<svg width="24px" height="24px" viewBox="0 0 24 24" version="1.1" xmlns="http://www.w3.org/2000/svg" xmlns:xlink="http://www.w3.org/1999/xlink">
    <!-- Generator: sketchtool 60 (101010) - https://sketch.com -->
    <title>8F1AC997-D48D-4A41-8C98-915890DCAE1F</title>
    <desc>Created with sketchtool.</desc>
    <g id="Asset-Artboard-Page" stroke="none" stroke-width="1" fill="none" fill-rule="evenodd">
        <g id="icon/level/motor-copy-3-icon/level/motor">
            <rect id="Rectangle" x="0" y="0" width="24" height="24"></rect>
            <path d="M17.8007812,6 C18.38237,6 18.8554688,6.47309875 18.8554688,7.0546875 L18.8554688,7.0546875 L21,7.0546875 L21,14.4375 L18.8554688,14.4375 C18.8554688,14.9513855 18.4859161,15.3802643 17.9988098,15.4732361 L17.9988098,15.4732361 L19.0596771,18.65625 L16.0002594,18.65625 L14.9455719,17.6015625 L11.1636658,17.6015625 L10.1089783,18.65625 L7.04956055,18.65625 L8.1105652,15.4732361 C7.62345887,15.3802643 7.25390625,14.9513855 7.25390625,14.4375 L7.25390625,14.4375 L5.14453125,14.4375 L5.14453125,12.328125 L3,12.328125 L3,9.1640625 L5.14453125,9.1640625 L5.14453125,7.0546875 L7.25390625,7.0546875 C7.25390625,6.47309875 7.727005,6 8.30859375,6 L8.30859375,6 Z M16.8933105,15.4921875 L9.21606445,15.4921875 L8.51293945,17.6015625 L9.67213439,17.6015625 L10.7268219,16.546875 L15.3825531,16.546875 L16.4372406,17.6015625 L17.5964355,17.6015625 L16.8933105,15.4921875 Z M19.9453125,8.109375 L18.8554688,8.109375 L18.8554688,13.3828125 L19.9453125,13.3828125 L19.9453125,8.109375 Z M7.25390625,8.109375 L6.19921875,8.109375 L6.19921875,13.3828125 L7.25390625,13.3828125 L7.25390625,8.109375 Z M17,12 L9,12 L9,13.0546875 L17,13.0546875 L17,12 Z M5.14453125,10.21875 L4.0546875,10.21875 L4.0546875,11.2734375 L5.14453125,11.2734375 L5.14453125,10.21875 Z M17,10 L9,10 L9,11.0546875 L17,11.0546875 L17,10 Z M17,8 L9,8 L9,9.0546875 L17,9.0546875 L17,8 Z" id="motor" fill="#FF5252"></path>
        </g>
    </g>
</svg>