<?xml version="1.0" encoding="UTF-8"?>
<svg width="25px" height="24px" viewBox="0 0 25 24" version="1.1" xmlns="http://www.w3.org/2000/svg" xmlns:xlink="http://www.w3.org/1999/xlink">
    <!-- Generator: sketchtool 61 (101010) - https://sketch.com -->
    <title>B61A39F0-C093-4177-AC2C-9F0B7D730BB2</title>
    <desc>Created with sketchtool.</desc>
    <g id="Asset-Artboard-Page" stroke="none" stroke-width="1" fill="none" fill-rule="evenodd">
        <g id="icon/star/unselected-star-copy-icon/level/country" transform="translate(0.855204, 0.000000)">
            <rect id="Rectangle" x="0" y="0" width="24" height="24"></rect>
            <path d="M6,4 C6.51283584,4 6.93550716,4.38604019 6.99327227,4.88337887 L7,5 C8.33333333,5.66666667 9.33333333,6 10,6 C11,6 12,5 13,5 C14,5 15,6 16,6 C16.6666667,6 17.6666667,5.66666667 19,5 L17,10 L19,14 C17.6666667,14.6666667 16.6666667,15 16,15 C15,15 13.4324658,14 13,14 C12,14 11,15 10,15 C9.33333333,15 8.33333333,14.6666667 7,14 L7,19 C7,19.5522847 6.55228475,20 6,20 C5.44771525,20 5,19.5522847 5,19 L5,5 C5,4.44771525 5.44771525,4 6,4 Z M12.6348309,7.17066132 L12.3944272,7.28885438 C11.3535533,7.80929134 10.8449968,8 10,8 C9.2320664,8 8.36217019,7.77984674 7.33323283,7.35397937 L7,7.211 L7,11.764 L7.89442719,12.2111456 C8.89946846,12.7136663 9.62095289,12.9653282 9.93824046,12.9966497 L10,13 L10.0144247,12.9919972 C10.0513221,12.9751037 10.1587875,12.9288748 10.3651691,12.8293387 L10.6055728,12.7111456 C11.6464467,12.1907087 12.1550032,12 13,12 C13.3984038,12 13.6842814,12.0726268 14.0777684,12.2276416 L14.4484247,12.3830409 L15.0893859,12.6679364 C15.2788323,12.7508898 15.4341492,12.8150177 15.5740597,12.867308 L15.7645679,12.9341342 C15.9036823,12.9795733 15.9903961,13 16,13 C16.03699,13 16.0824047,12.9955477 16.1358925,12.9865543 L16.246,12.963 L14.8094887,10.0911134 L15.651,7.986 L15.6015163,7.983464 C15.0337796,7.9328906 14.5738446,7.76201048 13.8552041,7.41217473 L13.3651691,7.17066132 C13.1243905,7.05453582 13.018248,7.01096737 13.0017254,7.00188972 L12.6348309,7.17066132 Z" id="Path" fill="#FFCD0B"></path>
        </g>
    </g>
</svg>