<?xml version="1.0" encoding="UTF-8"?>
<svg width="24px" height="24px" viewBox="0 0 24 24" version="1.1" xmlns="http://www.w3.org/2000/svg" xmlns:xlink="http://www.w3.org/1999/xlink">
    <title>icon/component/Frame v3</title>
    <g id="icon/component/Frame-v3" stroke="none" stroke-width="1" fill="none" fill-rule="evenodd">
        <rect id="Rectangle" x="0" y="0" width="24" height="24"></rect>
        <path d="M21.5,8 C21.7761424,8 22,8.22385763 22,8.5 C22,8.77614237 21.7761424,9 21.5,9 L19,9 L19,10 L19.5,10 C19.7761424,10 20,10.2238576 20,10.5 C20,10.7761424 19.7761424,11 19.5,11 L19,11 L19,13.5 C19,13.7761424 18.7761424,14 18.5,14 C18.2238576,14 18,13.7761424 18,13.5 L18,13.499 L17.1484333,14.7773501 C17.1091835,14.8362247 17.0585791,14.885148 17.0005871,14.9219968 L17,15.5 C17,15.7761424 16.7761424,16 16.5,16 C16.2238576,16 16,15.7761424 16,15.5 L16,11 L7,11 L7,13.5 C7,13.7761424 6.77614237,14 6.5,14 C6.22385763,14 6,13.7761424 6,13.5 L6,13.499 L5.14843327,14.7773501 C5.10918353,14.8362247 5.05857906,14.885148 5.00058712,14.9219968 L5,15.5 C5,15.7761424 4.77614237,16 4.5,16 C4.22385763,16 4,15.7761424 4,15.5 L4,11 L2.5,11 C2.22385763,11 2,10.7761424 2,10.5 C2,10.2238576 2.22385763,10 2.5,10 L5.333,10 L6,9 L4.5,9 C4.22385763,9 4,8.77614237 4,8.5 C4,8.22385763 4.22385763,8 4.5,8 L21.5,8 Z M6,11 L5.666,11 L5.14843327,11.7773501 C5.10918353,11.8362247 5.05857906,11.885148 5.00058712,11.9219968 L5,13.499 L6,12 L6,11 Z M18,11 L17.666,11 L17.1484333,11.7773501 C17.1091835,11.8362247 17.0585791,11.885148 17.0005871,11.9219968 L17,13.499 L18,12 L18,11 Z M18,9 L7,9 L7,10 L17.333,10 L18,9 Z" id="Combined-Shape" fill="#FF5252"></path>
    </g>
</svg>