<?xml version="1.0" encoding="UTF-8"?>
<svg width="24px" height="24px" viewBox="0 0 24 24" version="1.1" xmlns="http://www.w3.org/2000/svg" xmlns:xlink="http://www.w3.org/1999/xlink">
    <title>icon/component/Divert_v1</title>
    <g id="icon/component/Divert_v1" stroke="none" stroke-width="1" fill="none" fill-rule="evenodd">
        <rect id="Rectangle" x="0" y="0" width="24" height="24"></rect>
        <path d="M12.25,20 C12.6642136,20 13,20.3357864 13,20.75 L13,20.75 L13,21.25 C13,21.6642136 12.6642136,22 12.25,22 C11.8357864,22 11.5,21.6642136 11.5,21.25 L11.5,21.25 L11.5,20.75 C11.5,20.3357864 11.8357864,20 12.25,20 Z M12.25,16 C12.6642136,16 13,16.3357864 13,16.75 L13,16.75 L13,17.75 C13,18.1642136 12.6642136,18.5 12.25,18.5 C11.8357864,18.5 11.5,18.1642136 11.5,17.75 L11.5,17.75 L11.5,16.75 C11.5,16.3357864 11.8357864,16 12.25,16 Z M20,3 C20.5522847,3 21,3.44771525 21,4 L21,4 L21,8.25 C21,8.66421356 20.6642136,9 20.25,9 C19.8357864,9 19.5,8.66421356 19.5,8.25 L19.5,8.25 L19.5,5.5 L13.2928932,11.7071068 C13.1053568,11.8946432 13,12.1489971 13,12.4142136 L13,12.4142136 L13,13.75 C13,14.1642136 12.6642136,14.5 12.25,14.5 C11.8357864,14.5 11.5,14.1642136 11.5,13.75 L11.5,13.75 L11.5,11.9142136 C11.5,11.6489971 11.6053568,11.3946432 11.7928932,11.2071068 L11.7928932,11.2071068 L18.5,4.5 L15.75,4.5 C15.3357864,4.5 15,4.16421356 15,3.75 C15,3.33578644 15.3357864,3 15.75,3 L15.75,3 Z M8.25,3 C8.66421356,3 9,3.33578644 9,3.75 C9,4.16421356 8.66421356,4.5 8.25,4.5 L5.5,4.5 L10.5,9.5 C10.7761424,9.77614237 10.7761424,10.2238576 10.5,10.5 C10.2238576,10.7761424 9.77614237,10.7761424 9.5,10.5 L4.5,5.5 L4.5,8.25 C4.5,8.66421356 4.16421356,9 3.75,9 C3.33578644,9 3,8.66421356 3,8.25 L3,4 C3,3.44771525 3.44771525,3 4,3 L8.25,3 Z" id="Combined-Shape" fill="#FF5252"></path>
    </g>
</svg>