<?xml version="1.0" encoding="UTF-8"?>
<svg width="25px" height="24px" viewBox="0 0 25 24" version="1.1" xmlns="http://www.w3.org/2000/svg" xmlns:xlink="http://www.w3.org/1999/xlink">
    <!-- Generator: sketchtool 61 (101010) - https://sketch.com -->
    <title>44C3F57F-C3ED-4FE2-81A9-50E5365B554F</title>
    <desc>Created with sketchtool.</desc>
    <g id="Asset-Artboard-Page" stroke="none" stroke-width="1" fill="none" fill-rule="evenodd">
        <g id="icon/star/unselected-star-copy-icon/level/asset" transform="translate(0.855204, 0.000000)">
            <rect id="Rectangle" x="0" y="0" width="24" height="24"></rect>
            <path d="M19.5,14 C20.8807119,14 22,15.1192881 22,16.5 C22,17.8807119 20.8807119,19 19.5,19 L4.5,19 C3.11928813,19 2,17.8807119 2,16.5 C2,15.1192881 3.11928813,14 4.5,14 L19.5,14 Z M4.5,15 C3.67157288,15 3,15.6715729 3,16.5 C3,17.3284271 3.67157288,18 4.5,18 C5.32842712,18 6,17.3284271 6,16.5 C6,15.6715729 5.32842712,15 4.5,15 Z M9.5,15 C8.67157288,15 8,15.6715729 8,16.5 C8,17.3284271 8.67157288,18 9.5,18 C10.3284271,18 11,17.3284271 11,16.5 C11,15.6715729 10.3284271,15 9.5,15 Z M14.5,15 C13.6715729,15 13,15.6715729 13,16.5 C13,17.3284271 13.6715729,18 14.5,18 C15.3284271,18 16,17.3284271 16,16.5 C16,15.6715729 15.3284271,15 14.5,15 Z M19.5,15 C18.6715729,15 18,15.6715729 18,16.5 C18,17.3284271 18.6715729,18 19.5,18 C20.3284271,18 21,17.3284271 21,16.5 C21,15.6715729 20.3284271,15 19.5,15 Z M15,7 L15,8 L17,8 L17,7 L19,7 L19,13 L13,13 L13,7 L15,7 Z M7,7 L7,8 L9,8 L9,7 L11,7 L11,13 L5,13 L5,7 L7,7 Z" id="asset" fill="#00E893"></path>
        </g>
    </g>
</svg>